computerArchitecture/lab1/out/waveform.vcd
$date
	Tue Nov  7 14:39:44 2023
$end
$version
	Icarus Verilog
$end
$timescale
	1s
$end
$scope module TestBench $end
$var reg 1 ! Clk $end
$var reg 1 " Reset $end
$var integer 32 # counter [31:0] $end
$var integer 32 $ i [31:0] $end
$var integer 32 % outfile [31:0] $end
$scope module CPU $end
$var wire 1 & RegWrite $end
$var wire 1 ' Zero $end
$var wire 1 ! clk_i $end
$var wire 1 " rst_i $end
$var wire 32 ( rs3 [31:0] $end
$var wire 32 ) rs2 [31:0] $end
$var wire 32 * rs1 [31:0] $end
$var wire 32 + pc_o [31:0] $end
$var wire 32 , pc_i [31:0] $end
$var wire 32 - inst [31:0] $end
$var wire 32 . ext [31:0] $end
$var wire 32 / ALUres [31:0] $end
$var wire 10 0 ALUinst [9:0] $end
$var wire 1 1 ALUSrc $end
$var wire 3 2 ALUOp3 [2:0] $end
$var wire 2 3 ALUOp [1:0] $end
$scope module ALU $end
$var wire 1 ' Zero $end
$var wire 3 4 op [2:0] $end
$var wire 32 5 c [31:0] $end
$var wire 32 6 b [31:0] $end
$var wire 32 7 a [31:0] $end
$upscope $end
$scope module ALU_Control $end
$var wire 10 8 inst [9:0] $end
$var wire 3 9 ALUOp3 [2:0] $end
$var wire 2 : ALUOp [1:0] $end
$upscope $end
$scope module Add_PC $end
$var wire 32 ; b [31:0] $end
$var wire 32 < c [31:0] $end
$var wire 32 = a [31:0] $end
$upscope $end
$scope module Control $end
$var wire 1 1 ALUSrc $end
$var wire 1 & RegWrite $end
$var wire 7 > inst [6:0] $end
$var wire 2 ? ALUOp [1:0] $end
$upscope $end
$scope module Instruction_Memory $end
$var wire 32 @ instr_o [31:0] $end
$var wire 32 A addr_i [31:0] $end
$upscope $end
$scope module MUX_ALUSrc $end
$var wire 1 1 sel $end
$var wire 32 B c [31:0] $end
$var wire 32 C b [31:0] $end
$var wire 32 D a [31:0] $end
$upscope $end
$scope module PC $end
$var wire 1 ! clk_i $end
$var wire 32 E pc_i [31:0] $end
$var wire 1 " rst_i $end
$var reg 32 F pc_o [31:0] $end
$upscope $end
$scope module Registers $end
$var wire 5 G RDaddr_i [4:0] $end
$var wire 32 H RDdata_i [31:0] $end
$var wire 5 I RS1addr_i [4:0] $end
$var wire 32 J RS1data_o [31:0] $end
$var wire 5 K RS2addr_i [4:0] $end
$var wire 32 L RS2data_o [31:0] $end
$var wire 1 & RegWrite_i $end
$var wire 1 ! clk_i $end
$var wire 1 " rst_i $end
$var integer 32 M i [31:0] $end
$upscope $end
$scope module Sign_Extend $end
$var wire 12 N inst [11:0] $end
$var wire 32 O res [31:0] $end
$upscope $end
$upscope $end
$upscope $end
$enddefinitions $end
#0
$dumpvars
b11111111111111111111111000000000 O
b111000000000 N
b100000 M
b0 L
b0 K
b0 J
b1000 I
b11111111111111111111111000000000 H
b1000 G
b0 F
b100 E
b0 D
b11111111111111111111111000000000 C
b11111111111111111111111000000000 B
b0 A
b11100000000001000000010000010011 @
b1 ?
b10011 >
b0 =
b100 <
b100 ;
b1 :
b11 9
b1110000000 8
b0 7
b11111111111111111111111000000000 6
b11111111111111111111111000000000 5
b11 4
b1 3
b11 2
11
b1110000000 0
b11111111111111111111111000000000 /
b11111111111111111111111000000000 .
b11100000000001000000010000010011 -
b100 ,
b0 +
b0 *
b0 )
b11111111111111111111111000000000 (
0'
1&
b11 %
b100000000 $
b0 #
0"
0!
$end
#12
1"
#25
b110 2
b110 4
b110 9
b11111111111111111111111111100000 /
b11111111111111111111111111100000 5
b11111111111111111111111111100000 H
b10000000100 (
b10000000100 6
b10000000100 B
b10000000100 .
b10000000100 C
b10000000100 O
b10000000100 N
b10 G
b100 K
b100000101 0
b100000101 8
b1000000010001000101000100010011 -
b1000000010001000101000100010011 @
b11111111111111111111111000000000 *
b11111111111111111111111000000000 7
b11111111111111111111111000000000 J
b1000 ,
b1000 <
b1000 E
b100 +
b100 =
b100 A
b100 F
b1 #
1!
#50
0!
#75
b0 /
b0 5
b0 H
b100 2
b100 4
b100 9
01
b0 (
b0 6
b0 B
b11 3
b11 :
b11 ?
b10000001001 .
b10000001001 C
b10000001001 O
b10000001001 N
b0 G
b1001 K
b0 *
b0 7
b0 J
b11011 I
b110011 >
b100000000 0
b100000000 8
b1000000100111011000000000110011 -
b1000000100111011000000000110011 @
b1100 ,
b1100 <
b1100 E
b1000 +
b1000 =
b1000 A
b1000 F
b10 #
1!
#100
0!
#125
b1 2
b1 4
b1 9
b0 .
b0 C
b0 O
b0 N
b11011 G
b0 K
b10110 I
b100 0
b100 8
b10110100110110110011 -
b10110100110110110011 @
b10000 ,
b10000 <
b10000 E
b1100 +
b1100 =
b1100 A
b1100 F
b11 #
1!
#150
0!
#175
b101 2
b101 4
b101 9
b100100 .
b100100 C
b100100 O
b100100 N
b10011 G
b100 K
b1011 I
b1000 0
b1000 8
b10010001011000100110110011 -
b10010001011000100110110011 @
b10100 ,
b10100 <
b10100 E
b10000 +
b10000 =
b10000 A
b10000 F
b100 #
1!
#200
0!
#225
b100 2
b100 4
b100 9
b10000011111 .
b10000011111 C
b10000011111 O
b10000011111 N
b1011 G
b11111 K
b110 I
b100000000 0
b100000000 8
b1000001111100110000010110110011 -
b1000001111100110000010110110011 @
b11000 ,
b11000 <
b11000 E
b10100 +
b10100 =
b10100 A
b10100 F
b101 #
1!
#250
0!
#275
b101 2
b101 4
b101 9
b111001 .
b111001 C
b111001 O
b111001 N
b11111 G
b11001 K
b1101 I
b1000 0
b1000 8
b11100101101000111110110011 -
b11100101101000111110110011 @
b11100 ,
b11100 <
b11100 E
b11000 +
b11000 =
b11000 A
b11000 F
b110 #
1!
#300
0!
#325
b11111111111111111111110100000011 /
b11111111111111111111110100000011 5
b11111111111111111111110100000011 H
b11 2
b11 4
b11 9
b11111111111111111111110100000011 (
b11111111111111111111110100000011 6
b11111111111111111111110100000011 B
11
b1 3
b1 :
b1 ?
b11111111111111111111110100000011 .
b11111111111111111111110100000011 C
b11111111111111111111110100000011 O
b110100000011 N
b10110 G
b11 K
b10100 I
b10011 >
b1101000000 0
b1101000000 8
b11010000001110100000101100010011 -
b11010000001110100000101100010011 @
b100000 ,
b100000 <
b100000 E
b11100 +
b11100 =
b11100 A
b11100 F
b111 #
1!
#350
0!
#375
b0 /
b0 5
b0 H
b10 2
b10 4
b10 9
01
b0 (
b0 6
b0 B
b11 3
b11 :
b11 ?
b1100 .
b1100 C
b1100 O
b1100 N
b1001 G
b1100 K
b1001 I
b110011 >
b1 0
b1 8
b110001001001010010110011 -
b110001001001010010110011 @
b100100 ,
b100100 <
b100100 E
b100000 +
b100000 =
b100000 A
b100000 F
b1000 #
1!
#400
0!
#425
b101 2
b101 4
b101 9
b110011 .
b110011 C
b110011 O
b110011 N
b1100 G
b10011 K
b111 I
b1000 0
b1000 8
b11001100111000011000110011 -
b11001100111000011000110011 @
b101000 ,
b101000 <
b101000 E
b100100 +
b100100 =
b100100 A
b100100 F
b1001 #
1!
#450
0!
#475
b1 2
b1 4
b1 9
b1010 .
b1010 C
b1010 O
b1010 N
b1111 G
b1010 K
b1110 I
b100 0
b100 8
b101001110100011110110011 -
b101001110100011110110011 @
b101100 ,
b101100 <
b101100 E
b101000 +
b101000 =
b101000 A
b101000 F
b1010 #
1!
#500
0!
#525
b100 2
b100 4
b100 9
b10000000101 .
b10000000101 C
b10000000101 O
b10000000101 N
b11101 G
b101 K
b11111 I
b100000000 0
b100000000 8
b1000000010111111000111010110011 -
b1000000010111111000111010110011 @
b110000 ,
b110000 <
b110000 E
b101100 +
b101100 =
b101100 A
b101100 F
b1011 #
1!
#550
0!
#575
b11 2
b11 4
b11 9
b11 .
b11 C
b11 O
b11 N
b10110 G
b11 K
b10101 I
b0 0
b0 8
b1110101000101100110011 -
b1110101000101100110011 @
b110100 ,
b110100 <
b110100 E
b110000 +
b110000 =
b110000 A
b110000 F
b1100 #
1!
#600
0!
#625
b1000100000 /
b1000100000 5
b1000100000 H
b1000100000 (
b1000100000 6
b1000100000 B
11
b1 3
b1 :
b1 ?
b1000100000 .
b1000100000 C
b1000100000 O
b1000100000 N
b10010 G
b0 K
b11111 I
b10011 >
b10001000 0
b10001000 8
b100010000011111000100100010011 -
b100010000011111000100100010011 @
b111000 ,
b111000 <
b111000 E
b110100 +
b110100 =
b110100 A
b110100 F
b1101 #
1!
#650
0!
#675
b0 /
b0 5
b0 H
b110 2
b110 4
b110 9
b10000010111 (
b10000010111 6
b10000010111 B
b10000010111 .
b10000010111 C
b10000010111 O
b10000010111 N
b1011 G
b10111 K
b10101 I
b100000101 0
b100000101 8
b1000001011110101101010110010011 -
b1000001011110101101010110010011 @
b111100 ,
b111100 <
b111100 E
b111000 +
b111000 =
b111000 A
b111000 F
b1110 #
1!
#700
0!
#725
b100 2
b100 4
b100 9
01
b0 (
b0 6
b0 B
b11 3
b11 :
b11 ?
b10000011000 .
b10000011000 C
b10000011000 O
b10000011000 N
b11 G
b11000 K
b101 I
b110011 >
b100000000 0
b100000000 8
b1000001100000101000000110110011 -
b1000001100000101000000110110011 @
b1000000 ,
b1000000 <
b1000000 E
b111100 +
b111100 =
b111100 A
b111100 F
b1111 #
1!
#750
0!
#775
b1 2
b1 4
b1 9
b11010 .
b11010 C
b11010 O
b11010 N
b11111 G
b11010 K
b11011 I
b100 0
b100 8
b1101011011100111110110011 -
b1101011011100111110110011 @
b1000100 ,
b1000100 <
b1000100 E
b1000000 +
b1000000 =
b1000000 A
b1000000 F
b10000 #
1!
#800
0!
#825
b0 2
b0 4
b0 9
b10011 .
b10011 C
b10011 O
b10011 N
b111 G
b10011 K
b1001 I
b111 0
b111 8
b1001101001111001110110011 -
b1001101001111001110110011 @
b1001000 ,
b1001000 <
b1001000 E
b1000100 +
b1000100 =
b1000100 A
b1000100 F
b10001 #
1!
#850
0!
#875
b10111 .
b10111 C
b10111 O
b10111 N
b11111 G
b10111 K
b11101 I
b1011111101111111110110011 -
b1011111101111111110110011 @
b1001100 ,
b1001100 <
b1001100 E
b1001000 +
b1001000 =
b1001000 A
b1001000 F
b10010 #
1!
#900
0!
#925
b10 2
b10 4
b10 9
b11011 .
b11011 C
b11011 O
b11011 N
b11011 G
b11011 K
b10101 I
b1 0
b1 8
b1101110101001110110110011 -
b1101110101001110110110011 @
b1010000 ,
b1010000 <
b1010000 E
b1001100 +
b1001100 =
b1001100 A
b1001100 F
b10011 #
1!
#950
0!
#975
b1111 .
b1111 C
b1111 O
b1111 N
b1 G
b1111 K
b11000 I
b111111000001000010110011 -
b111111000001000010110011 @
b1010100 ,
b1010100 <
b1010100 E
b1010000 +
b1010000 =
b1010000 A
b1010000 F
b10100 #
1!
#1000
0!
#1025
b100 2
b100 4
b100 9
b10000011011 .
b10000011011 C
b10000011011 O
b10000011011 N
b11 G
b11011 K
b0 I
b100000000 0
b100000000 8
b1000001101100000000000110110011 -
b1000001101100000000000110110011 @
b1011000 ,
b1011000 <
b1011000 E
b1010100 +
b1010100 =
b1010100 A
b1010100 F
b10101 #
1!
#1050
0!
#1075
b101 2
b101 4
b101 9
b110101 .
b110101 C
b110101 O
b110101 N
b10000 G
b10101 K
b11110 I
b1000 0
b1000 8
b11010111110000100000110011 -
b11010111110000100000110011 @
b1011100 ,
b1011100 <
b1011100 E
b1011000 +
b1011000 =
b1011000 A
b1011000 F
b10110 #
1!
#1100
0!
#1125
b11 2
b11 4
b11 9
b1101 .
b1101 C
b1101 O
b1101 N
b1101 G
b1101 K
b11011 I
b0 0
b0 8
b110111011000011010110011 -
b110111011000011010110011 @
b1100000 ,
b1100000 <
b1100000 E
b1011100 +
b1011100 =
b1011100 A
b1011100 F
b10111 #
1!
#1150
0!
#1175
b1001100011 /
b1001100011 5
b1001100011 H
b1001100011 (
b1001100011 6
b1001100011 B
11
b1 3
b1 :
b1 ?
b1001100011 .
b1001100011 C
b1001100011 O
b1001100011 N
b1001 G
b11 K
b11000 I
b10011 >
b10011000 0
b10011000 8
b100110001111000000010010010011 -
b100110001111000000010010010011 @
b1100100 ,
b1100100 <
b1100100 E
b1100000 +
b1100000 =
b1100000 A
b1100000 F
b11000 #
1!
#1200
0!
#1225
b11111111111111111111011100010111 /
b11111111111111111111011100010111 5
b11111111111111111111011100010111 H
b11111111111111111111100100010111 (
b11111111111111111111100100010111 6
b11111111111111111111100100010111 B
b11111111111111111111100100010111 .
b11111111111111111111100100010111 C
b11111111111111111111100100010111 O
b100100010111 N
b1100 G
b10111 K
b11111111111111111111111000000000 *
b11111111111111111111111000000000 7
b11111111111111111111111000000000 J
b1000 I
b1001000000 0
b1001000000 8
b10010001011101000000011000010011 -
b10010001011101000000011000010011 @
b1101000 ,
b1101000 <
b1101000 E
b1100100 +
b1100100 =
b1100100 A
b1100100 F
b11001 #
1!
#1250
0!
#1275
b0 /
b0 5
b0 H
b10 2
b10 4
b10 9
01
b0 (
b0 6
b0 B
b11 3
b11 :
b11 ?
b10100 .
b10100 C
b10100 O
b10100 N
b110 G
b10100 K
b0 *
b0 7
b0 J
b11 I
b110011 >
b1 0
b1 8
b1010000011001001100110011 -
b1010000011001001100110011 @
b1101100 ,
b1101100 <
b1101100 E
b1101000 +
b1101000 =
b1101000 A
b1101000 F
b11010 #
1!
#1300
0!
#1325
b100 2
b100 4
b100 9
b10000000111 .
b10000000111 C
b10000000111 O
b10000000111 N
b10101 G
b111 K
b100 I
b100000000 0
b100000000 8
b1000000011100100000101010110011 -
b1000000011100100000101010110011 @
b1110000 ,
b1110000 <
b1110000 E
b1101100 +
b1101100 =
b1101100 A
b1101100 F
b11011 #
1!
#1350
0!
#1375
b110 2
b110 4
b110 9
b10000010101 (
b10000010101 6
b10000010101 B
11
b1 3
b1 :
b1 ?
b10000010101 .
b10000010101 C
b10000010101 O
b10000010101 N
b101 G
b10101 K
b10111 I
b10011 >
b100000101 0
b100000101 8
b1000001010110111101001010010011 -
b1000001010110111101001010010011 @
b1110100 ,
b1110100 <
b1110100 E
b1110000 +
b1110000 =
b1110000 A
b1110000 F
b11100 #
1!
#1400
0!
#1425
b10 2
b10 4
b10 9
01
b0 (
b0 6
b0 B
b11 3
b11 :
b11 ?
b11 .
b11 C
b11 O
b11 N
b10100 G
b11 K
b10001 I
b110011 >
b1 0
b1 8
b1110001001101000110011 -
b1110001001101000110011 @
b1111000 ,
b1111000 <
b1111000 E
b1110100 +
b1110100 =
b1110100 A
b1110100 F
b11101 #
1!
#1450
0!
#1475
b1101 .
b1101 C
b1101 O
b1101 N
b111 G
b1101 K
b10000 I
b110110000001001110110011 -
b110110000001001110110011 @
b1111100 ,
b1111100 <
b1111100 E
b1111000 +
b1111000 =
b1111000 A
b1111000 F
b11110 #
1!
#1500
0!
#1525
b1110 .
b1110 C
b1110 O
b1110 N
b11110 G
b1110 K
b1011 I
b111001011001111100110011 -
b111001011001111100110011 @
b10000000 ,
b10000000 <
b10000000 E
b1111100 +
b1111100 =
b1111100 A
b1111100 F
1!
