computerArchitecture/lab3/out/waveform.vcd
$date
	Tue Dec 26 01:00:21 2023
$end
$version
	Icarus Verilog
$end
$timescale
	1s
$end
$scope module TestBench $end
$var reg 1 ! Clk $end
$var reg 1 " Reset $end
$var integer 32 # counter [31:0] $end
$var integer 32 $ i [31:0] $end
$var integer 32 % outfile [31:0] $end
$scope module CPU $end
$var wire 1 ! clk_i $end
$var wire 1 " rst_i $end
$var wire 32 & wbwd [31:0] $end
$var wire 5 ' wbrd [4:0] $end
$var wire 1 ( stall $end
$var wire 32 ) r24 [31:0] $end
$var wire 32 * r23 [31:0] $end
$var wire 32 + r22 [31:0] $end
$var wire 32 , r21 [31:0] $end
$var wire 32 - r20 [31:0] $end
$var wire 32 . r12 [31:0] $end
$var wire 32 / r11 [31:0] $end
$var wire 32 0 r10 [31:0] $end
$var wire 1 1 pred $end
$var wire 1 2 pcwrite $end
$var wire 32 3 pc7 [31:0] $end
$var wire 32 4 pc6 [31:0] $end
$var wire 32 5 pc5 [31:0] $end
$var wire 32 6 pc4 [31:0] $end
$var wire 32 7 pc3 [31:0] $end
$var wire 32 8 pc2 [31:0] $end
$var wire 32 9 pc1 [31:0] $end
$var wire 32 : pc0 [31:0] $end
$var wire 1 ; noop $end
$var wire 5 < memrd [4:0] $end
$var wire 32 = inst2 [31:0] $end
$var wire 32 > inst1 [31:0] $end
$var wire 32 ? inst0 [31:0] $end
$var wire 32 @ imm1 [31:0] $end
$var wire 32 A imm0 [31:0] $end
$var wire 1 B idbranch $end
$var wire 1 C flush $end
$var wire 2 D fb [1:0] $end
$var wire 1 E fail $end
$var wire 2 F fa [1:0] $end
$var wire 1 G exbranch $end
$var wire 2 H ctrl3 [1:0] $end
$var wire 4 I ctrl2 [3:0] $end
$var wire 7 J ctrl1 [6:0] $end
$var wire 7 K ctrl0 [6:0] $end
$var wire 3 L aluop3 [2:0] $end
$var wire 32 M alu4 [31:0] $end
$var wire 32 N alu3 [31:0] $end
$var wire 32 O alu2 [31:0] $end
$var wire 32 P alu1 [31:0] $end
$var wire 32 Q alu0 [31:0] $end
$var wire 1 R alu $end
$scope module ALU $end
$var wire 3 S op [2:0] $end
$var wire 32 T data_o [31:0] $end
$var wire 32 U b [31:0] $end
$var wire 32 V a [31:0] $end
$upscope $end
$scope module ALUControl $end
$var wire 2 W aluop [1:0] $end
$var wire 10 X inst [9:0] $end
$var wire 3 Y aluop3 [2:0] $end
$upscope $end
$scope module Add0 $end
$var wire 32 Z b [31:0] $end
$var wire 32 [ c [31:0] $end
$var wire 32 \ a [31:0] $end
$upscope $end
$scope module Add1 $end
$var wire 32 ] c [31:0] $end
$var wire 32 ^ b [31:0] $end
$var wire 32 _ a [31:0] $end
$upscope $end
$scope module Control $end
$var wire 7 ` inst [6:0] $end
$var wire 8 a out [7:0] $end
$var wire 1 ; noop $end
$var wire 7 b ctrl [6:0] $end
$var wire 1 B Branch_o $end
$upscope $end
$scope module Data_Memory $end
$var wire 1 c MemRead_i $end
$var wire 1 d MemWrite_i $end
$var wire 1 ! clk_i $end
$var wire 32 e data_o [31:0] $end
$var wire 32 f data_i [31:0] $end
$var wire 32 g addr_i [31:0] $end
$upscope $end
$scope module EXMEM $end
$var wire 32 h alui [31:0] $end
$var wire 32 i aluo [31:0] $end
$var wire 1 ! clk $end
$var wire 4 j ctrli [3:0] $end
$var wire 4 k ctrlo [3:0] $end
$var wire 5 l insti [4:0] $end
$var wire 5 m insto [4:0] $end
$var wire 32 n r2o [31:0] $end
$var wire 1 " rst $end
$var wire 32 o r2i [31:0] $end
$var reg 32 p alu [31:0] $end
$var reg 4 q ctrl [3:0] $end
$var reg 5 r inst [4:0] $end
$var reg 32 s r2 [31:0] $end
$upscope $end
$scope module FU $end
$var wire 5 t exrs1 [4:0] $end
$var wire 5 u exrs2 [4:0] $end
$var wire 5 v memrd [4:0] $end
$var wire 1 w memregwrite $end
$var wire 1 x wbregwrite $end
$var wire 5 y wbrd [4:0] $end
$var wire 2 z fb [1:0] $end
$var wire 2 { fa [1:0] $end
$upscope $end
$scope module Hazard_Detection $end
$var wire 1 ( Stall_o $end
$var wire 1 | memread $end
$var wire 1 ; noop $end
$var wire 1 2 pcwrite $end
$var wire 5 } rd [4:0] $end
$var wire 5 ~ rs1 [4:0] $end
$var wire 5 !" rs2 [4:0] $end
$upscope $end
$scope module ID_EX $end
$var wire 1 B branchi $end
$var wire 1 ! clk $end
$var wire 7 "" ctrli [6:0] $end
$var wire 7 #" ctrlo [6:0] $end
$var wire 32 $" immo [31:0] $end
$var wire 32 %" insto [31:0] $end
$var wire 32 &" pco [31:0] $end
$var wire 32 '" r1o [31:0] $end
$var wire 32 (" r2o [31:0] $end
$var wire 1 " rst $end
$var wire 32 )" r2i [31:0] $end
$var wire 32 *" r1i [31:0] $end
$var wire 32 +" pci [31:0] $end
$var wire 32 ," insti [31:0] $end
$var wire 32 -" immi [31:0] $end
$var wire 1 E fail $end
$var wire 1 G Branch_o $end
$var reg 1 G branch $end
$var reg 7 ." ctrl [6:0] $end
$var reg 32 /" imm [31:0] $end
$var reg 32 0" inst [31:0] $end
$var reg 32 1" pc [31:0] $end
$var reg 32 2" r1 [31:0] $end
$var reg 32 3" r2 [31:0] $end
$upscope $end
$scope module IF_ID $end
$var wire 1 ! clk $end
$var wire 32 4" insto [31:0] $end
$var wire 32 5" pco [31:0] $end
$var wire 1 " rst $end
$var wire 1 ( stall $end
$var wire 32 6" pci [31:0] $end
$var wire 32 7" insti [31:0] $end
$var wire 1 C flush_i $end
$var reg 32 8" inst [31:0] $end
$var reg 32 9" pc [31:0] $end
$upscope $end
$scope module ImmGen $end
$var wire 32 :" inst [31:0] $end
$var wire 32 ;" res [31:0] $end
$var wire 10 <" func [9:0] $end
$upscope $end
$scope module Instruction_Memory $end
$var wire 32 =" instr_o [31:0] $end
$var wire 32 >" addr_i [31:0] $end
$upscope $end
$scope module MEMWB $end
$var wire 32 ?" alu1i [31:0] $end
$var wire 32 @" alu1o [31:0] $end
$var wire 32 A" alu2i [31:0] $end
$var wire 32 B" alu2o [31:0] $end
$var wire 1 ! clk $end
$var wire 2 C" ctrli [1:0] $end
$var wire 2 D" ctrlo [1:0] $end
$var wire 5 E" rdi [4:0] $end
$var wire 1 " rst $end
$var wire 5 F" rdo [4:0] $end
$var reg 32 G" alu1 [31:0] $end
$var reg 32 H" alu2 [31:0] $end
$var reg 2 I" ctrl [1:0] $end
$var reg 32 J" rd [31:0] $end
$upscope $end
$scope module MUX0 $end
$var wire 32 K" a0 [31:0] $end
$var wire 32 L" a1 [31:0] $end
$var wire 1 1 sel $end
$var wire 32 M" b [31:0] $end
$upscope $end
$scope module MUX1 $end
$var wire 32 N" a0 [31:0] $end
$var wire 32 O" a2 [31:0] $end
$var wire 2 P" sel [1:0] $end
$var wire 32 Q" b [31:0] $end
$var wire 32 R" a1 [31:0] $end
$upscope $end
$scope module MUX2 $end
$var wire 32 S" a0 [31:0] $end
$var wire 32 T" a2 [31:0] $end
$var wire 2 U" sel [1:0] $end
$var wire 32 V" b [31:0] $end
$var wire 32 W" a1 [31:0] $end
$upscope $end
$scope module MUX3 $end
$var wire 32 X" a0 [31:0] $end
$var wire 32 Y" a1 [31:0] $end
$var wire 1 Z" sel $end
$var wire 32 [" b [31:0] $end
$upscope $end
$scope module MUX4 $end
$var wire 32 \" a0 [31:0] $end
$var wire 32 ]" a1 [31:0] $end
$var wire 1 ^" sel $end
$var wire 32 _" b [31:0] $end
$upscope $end
$scope module MUX5 $end
$var wire 32 `" a0 [31:0] $end
$var wire 1 1 sel $end
$var wire 32 a" b [31:0] $end
$var wire 32 b" a1 [31:0] $end
$upscope $end
$scope module MUX6 $end
$var wire 32 c" a0 [31:0] $end
$var wire 32 d" a1 [31:0] $end
$var wire 1 E sel $end
$var wire 32 e" b [31:0] $end
$upscope $end
$scope module PC $end
$var wire 1 2 PCWrite_i $end
$var wire 1 ! clk_i $end
$var wire 32 f" pc_i [31:0] $end
$var wire 1 " rst_i $end
$var reg 32 g" pc_o [31:0] $end
$upscope $end
$scope module Registers $end
$var wire 5 h" RDaddr_i [4:0] $end
$var wire 32 i" RDdata_i [31:0] $end
$var wire 5 j" RS1addr_i [4:0] $end
$var wire 5 k" RS2addr_i [4:0] $end
$var wire 1 l" RegWrite_i $end
$var wire 1 ! clk_i $end
$var wire 1 " rst_i $end
$var wire 32 m" RS2data_o [31:0] $end
$var wire 32 n" RS1data_o [31:0] $end
$var integer 32 o" i [31:0] $end
$upscope $end
$scope module branch_predictor $end
$var wire 1 R alu $end
$var wire 1 ! clk $end
$var wire 1 G exbranch $end
$var wire 1 E fail $end
$var wire 1 C flush $end
$var wire 1 B idbranch $end
$var wire 1 " rst $end
$var wire 2 p" statei [1:0] $end
$var wire 1 q" predict_o $end
$var wire 1 1 pred $end
$var reg 2 r" state [1:0] $end
$upscope $end
$upscope $end
$upscope $end
$enddefinitions $end
#0
$dumpvars
bx r"
xq"
bx p"
bx o"
bx n"
bx m"
xl"
bx k"
bx j"
bx i"
bx h"
bx g"
bx f"
bx e"
bx d"
bx c"
bx b"
bx a"
bx `"
bx _"
x^"
bx ]"
bx \"
bx ["
xZ"
bx Y"
bx X"
bx W"
bx V"
bx U"
bx T"
bx S"
bx R"
bx Q"
bx P"
bx O"
bx N"
bx M"
bx L"
bx K"
bx J"
bx I"
bx H"
bx G"
bx F"
bx E"
bx D"
bx C"
bx B"
bx A"
bx @"
bx ?"
bx >"
bx ="
bx <"
bx ;"
bx :"
bx 9"
bx 8"
bx 7"
bx 6"
bx 5"
bx 4"
bx 3"
bx 2"
bx 1"
bx 0"
bx /"
bx ."
bx -"
bx ,"
bx +"
bx *"
bx )"
bx ("
bx '"
bx &"
bx %"
bx $"
bx #"
bx ""
bx !"
bx ~
bx }
x|
bx {
bx z
bx y
xx
xw
bx v
bx u
bx t
bx s
bx r
bx q
bx p
bx o
bx n
bx m
bx l
bx k
bx j
bx i
bx h
bx g
bx f
bx e
xd
xc
bx b
bx a
bx `
bx _
bx ^
bx ]
bx \
bx [
b100 Z
bx Y
bx X
bx W
bx V
bx U
bx T
bx S
xR
bx Q
bx P
bx O
bx N
bx M
bx L
bx K
bx J
bx I
bx H
xG
bx F
xE
bx D
xC
xB
bx A
bx @
bx ?
bx >
bx =
bx <
x;
bx :
bx 9
bx 8
bx 7
bx 6
bx 5
bx 4
bx 3
x2
x1
bx 0
bx /
bx .
bx -
bx ,
bx +
bx *
bx )
x(
bx '
bx &
b11 %
b100000 $
b0 #
1"
0!
$end
#6
1R
b0 Q
b0 T
b0 h
0C
01
b100 3
b100 e"
b100 f"
0B
b0 K
b0 b
b0 ""
b11 L
b11 S
b11 Y
b100 6
b100 M"
b100 c"
b0 5
b0 +"
b0 a"
b0 a
12
b0 F
b0 {
b0 P"
b0 D
b0 z
b0 U"
b0 7
b0 ]
b0 L"
b0 `"
b0 A
b0 _
b0 -"
b0 ;"
0;
0(
b0 O
b0 e
b0 A"
b0 0
b0 *"
b0 n"
b0 -
b0 )"
b0 m"
b10100000000000100010011 ?
b10100000000000100010011 7"
b10100000000000100010011 ="
b0 <"
b0 `
b0 k"
b0 j"
b0 !"
b0 ~
1q"
0E
b11 p"
b0 l
b0 X
b0 u
b0 t
b0 }
b0 *
b0 U
b0 ["
b0 +
b0 o
b0 V"
b0 X"
b0 .
b0 V
b0 Q"
b0 j
b0 W
0Z"
0|
b0 C"
0d
0c
0w
b0 '
b0 y
b0 F"
b0 h"
b0 &
b0 R"
b0 W"
b0 _"
b0 i"
0^"
0x
0l"
b100 9
b100 [
b100 K"
b0 :
b0 \
b0 6"
b0 >"
b0 b"
b0 g"
b0 >
b0 ,"
b0 4"
b0 8"
b0 :"
b0 8
b0 ^
b0 5"
b0 9"
b11 r"
b0 4
b0 &"
b0 1"
b0 d"
0G
b0 =
b0 %"
b0 0"
b0 @
b0 $"
b0 /"
b0 Y"
b0 ,
b0 ("
b0 3"
b0 S"
b0 /
b0 '"
b0 2"
b0 N"
b0 J
b0 #"
b0 ."
b0 <
b0 m
b0 r
b0 v
b0 E"
b0 )
b0 f
b0 n
b0 s
b0 P
b0 g
b0 i
b0 p
b0 ?"
b0 O"
b0 T"
b0 I
b0 k
b0 q
b0 J"
b0 N
b0 B"
b0 H"
b0 ]"
b0 M
b0 @"
b0 G"
b0 \"
b0 H
b0 D"
b0 I"
b100000 o"
0"
#12
1"
#25
b1110001 K
b1110001 b
b1110001 ""
b101 5
b101 +"
b101 a"
b11100010 a
b101 7
b101 ]
b101 L"
b101 `"
b101 A
b101 _
b101 -"
b101 ;"
b1000 3
b1000 e"
b1000 f"
b10011 <"
b10011 `
b101 k"
b101 !"
b100000000000010010011 ?
b100000000000010010011 7"
b100000000000010010011 ="
b1000 6
b1000 M"
b1000 c"
b10100000000000100010011 >
b10100000000000100010011 ,"
b10100000000000100010011 4"
b10100000000000100010011 8"
b10100000000000100010011 :"
b1000 9
b1000 [
b1000 K"
b100 :
b100 \
b100 6"
b100 >"
b100 b"
b100 g"
b1 #
1!
#50
0!
#75
0R
b101 Q
b101 T
b101 h
b1100 3
b1100 e"
b1100 f"
b1 A
b1 _
b1 -"
b1 ;"
b101 *
b101 U
b101 ["
b10000000001000010001100011 ?
b10000000001000010001100011 7"
b10000000001000010001100011 ="
b1100 6
b1100 M"
b1100 c"
b101 5
b101 +"
b101 a"
b1 k"
b1 !"
b10 l
b101 u
b10 }
b1 j
b11 W
1Z"
b1100 9
b1100 [
b1100 K"
b1000 :
b1000 \
b1000 6"
b1000 >"
b1000 b"
b1000 g"
b101 7
b101 ]
b101 L"
b101 `"
b100 8
b100 ^
b100 5"
b100 9"
b100000000000010010011 >
b100000000000010010011 ,"
b100000000000010010011 4"
b100000000000010010011 8"
b100000000000010010011 :"
b101 4
b101 &"
b101 1"
b101 d"
b10100000000000100010011 =
b10100000000000100010011 %"
b10100000000000100010011 0"
b101 @
b101 $"
b101 /"
b101 Y"
b1110001 J
b1110001 #"
b1110001 ."
b10 #
1!
#100
0!
#125
1C
11
b1 Q
b1 T
b1 h
1B
b10000 K
b10000 b
b10000 ""
b1010000 a
b101000 A
b101000 _
b101000 -"
b101000 ;"
b110000 3
b110000 e"
b110000 f"
b1 C"
1w
b1 l
b1 u
b1 }
b1 *
b1 U
b1 ["
b1100 5
b1100 +"
b1100 a"
b1100011 <"
b1100011 `
b0 k"
b1 j"
b0 !"
b1 ~
b100001000000010010011 ?
b100001000000010010011 7"
b100001000000010010011 ="
b110000 6
b110000 M"
b110000 c"
b10 <
b10 m
b10 r
b10 v
b10 E"
b101 P
b101 g
b101 i
b101 p
b101 ?"
b101 O"
b101 T"
b1 I
b1 k
b1 q
b100000000000010010011 =
b100000000000010010011 %"
b100000000000010010011 0"
b1 @
b1 $"
b1 /"
b1 Y"
b110000 7
b110000 ]
b110000 L"
b110000 `"
b1000 8
b1000 ^
b1000 5"
b1000 9"
b10000000001000010001100011 >
b10000000001000010001100011 ,"
b10000000001000010001100011 4"
b10000000001000010001100011 8"
b10000000001000010001100011 :"
b10000 9
b10000 [
b10000 K"
b1100 :
b1100 \
b1100 6"
b1100 >"
b1100 b"
b1100 g"
b11 #
1!
#150
0!
#175
1C
b1000 7
b1000 ]
b1000 L"
b1000 `"
b0 A
b0 _
b0 -"
b0 ;"
0R
b1 Q
b1 T
b1 h
b0 K
b0 b
b0 ""
0B
b110100 6
b110100 M"
b110100 c"
b1 .
b1 V
b1 Q"
b0 a
01
b10 F
b10 {
b10 P"
b0 +
b0 o
b0 V"
b0 X"
b1100 3
b1100 e"
b1100 f"
b100 L
b100 S
b100 Y
b0 D
b0 z
b0 U"
b1000 5
b1000 +"
b1000 a"
b0 ?
b0 7"
b0 ="
b0 <"
b0 `
b0 j"
b0 ~
1E
b10 p"
b1000 l
b1000 X
b0 u
b1 t
b1000 }
b0 *
b0 U
b0 ["
b0 j
b1 W
0Z"
b10 '
b10 y
b10 F"
b10 h"
b101 &
b101 R"
b101 W"
b101 _"
b101 i"
1x
1l"
b110100 9
b110100 [
b110100 K"
b110000 :
b110000 \
b110000 6"
b110000 >"
b110000 b"
b110000 g"
b0 >
b0 ,"
b0 4"
b0 8"
b0 :"
b1100 4
b1100 &"
b1100 1"
b1100 d"
1G
b10000000001000010001100011 =
b10000000001000010001100011 %"
b10000000001000010001100011 0"
b101000 @
b101000 $"
b101000 /"
b101000 Y"
b10000 J
b10000 #"
b10000 ."
b1 <
b1 m
b1 r
b1 v
b1 E"
b1 P
b1 g
b1 i
b1 p
b1 ?"
b1 O"
b1 T"
b10 J"
b101 M
b101 @"
b101 G"
b101 \"
b1 H
b1 D"
b1 I"
b100 #
1!
#200
0!
#225
1R
b0 Q
b0 T
b0 h
b0 .
b0 V
b0 Q"
b0 F
b0 {
b0 P"
0C
b11 L
b11 S
b11 Y
b1 '
b1 y
b1 F"
b1 h"
b1 &
b1 R"
b1 W"
b1 _"
b1 i"
b0 C"
0w
b10000 3
b10000 e"
b10000 f"
0E
b0 l
b0 X
b0 t
b0 }
b0 W
b100001000000010010011 ?
b100001000000010010011 7"
b100001000000010010011 ="
b10000 6
b10000 M"
b10000 c"
b1 J"
b1 M
b1 @"
b1 G"
b1 \"
b1000 <
b1000 m
b1000 r
b1000 v
b1000 E"
b0 I
b0 k
b0 q
b0 4
b0 &"
b0 1"
b0 d"
0G
b0 =
b0 %"
b0 0"
b0 @
b0 $"
b0 /"
b0 Y"
b0 J
b0 #"
b0 ."
b10 r"
b10000 9
b10000 [
b10000 K"
b1100 :
b1100 \
b1100 6"
b1100 >"
b1100 b"
b1100 g"
b101 #
1!
#250
0!
#275
b1110001 K
b1110001 b
b1110001 ""
b11100010 a
b10100 3
b10100 e"
b10100 f"
b1 A
b1 _
b1 -"
b1 ;"
b1 -
b1 )"
b1 m"
b1 0
b1 *"
b1 n"
b1000001000100001100011 ?
b1000001000100001100011 7"
b1000001000100001100011 ="
b10100 6
b10100 M"
b10100 c"
b1101 5
b1101 +"
b1101 a"
b10011 <"
b10011 `
b1 k"
b1 j"
b1 !"
b1 ~
b1000 '
b1000 y
b1000 F"
b1000 h"
0x
0l"
b10100 9
b10100 [
b10100 K"
b10000 :
b10000 \
b10000 6"
b10000 >"
b10000 b"
b10000 g"
b1101 7
b1101 ]
b1101 L"
b1101 `"
b1100 8
b1100 ^
b1100 5"
b1100 9"
b100001000000010010011 >
b100001000000010010011 ,"
b100001000000010010011 4"
b100001000000010010011 8"
b100001000000010010011 :"
b1000 4
b1000 &"
b1000 1"
b1000 d"
b0 <
b0 m
b0 r
b0 v
b0 E"
b0 P
b0 g
b0 i
b0 p
b0 ?"
b0 O"
b0 T"
b1000 J"
b0 H
b0 D"
b0 I"
b110 #
1!
#300
0!
#325
1C
11
0R
b10 Q
b10 T
b10 h
1B
b10000 K
b10000 b
b10000 ""
b1010000 a
b1 *
b1 U
b1 ["
b10000 A
b10000 _
b10000 -"
b10000 ;"
b101 -
b101 )"
b101 m"
b100000 3
b100000 e"
b100000 f"
b0 '
b0 y
b0 F"
b0 h"
b0 &
b0 R"
b0 W"
b0 _"
b0 i"
b1 l
b1 u
b1 t
b1 }
b1 +
b1 o
b1 V"
b1 X"
b1 .
b1 V
b1 Q"
b1 j
b11 W
1Z"
b10100 5
b10100 +"
b10100 a"
b1100011 <"
b1100011 `
b10 k"
b10 !"
b11111110000000000000110011100011 ?
b11111110000000000000110011100011 7"
b11111110000000000000110011100011 ="
b100000 6
b100000 M"
b100000 c"
b0 J"
b0 M
b0 @"
b0 G"
b0 \"
b1101 4
b1101 &"
b1101 1"
b1101 d"
b100001000000010010011 =
b100001000000010010011 %"
b100001000000010010011 0"
b1 @
b1 $"
b1 /"
b1 Y"
b1 ,
b1 ("
b1 3"
b1 S"
b1 /
b1 '"
b1 2"
b1 N"
b1110001 J
b1110001 #"
b1110001 ."
b100000 7
b100000 ]
b100000 L"
b100000 `"
b10000 8
b10000 ^
b10000 5"
b10000 9"
b1000001000100001100011 >
b1000001000100001100011 ,"
b1000001000100001100011 4"
b1000001000100001100011 8"
b1000001000100001100011 :"
b11000 9
b11000 [
b11000 K"
b10100 :
b10100 \
b10100 6"
b10100 >"
b10100 b"
b10100 g"
b111 #
1!
#350
0!
#375
1C
b10000 7
b10000 ]
b10000 L"
b10000 `"
b0 A
b0 _
b0 -"
b0 ;"
0R
b11111111111111111111111111111101 Q
b11111111111111111111111111111101 T
b11111111111111111111111111111101 h
b0 K
b0 b
b0 ""
0B
b100100 6
b100100 M"
b100100 c"
b10 .
b10 V
b10 Q"
b0 a
01
b10 F
b10 {
b10 P"
b0 -
b0 )"
b0 m"
b0 0
b0 *"
b0 n"
b10100 3
b10100 e"
b10100 f"
b100 L
b100 S
b100 Y
b10000 5
b10000 +"
b10000 a"
b11111110000000001000111011100011 ?
b11111110000000001000111011100011 7"
b11111110000000001000111011100011 ="
b0 <"
b0 `
b0 k"
b0 j"
b0 !"
b0 ~
1E
b1 p"
b10000 l
b10 u
b10000 }
b101 *
b101 U
b101 ["
b101 +
b101 o
b101 V"
b101 X"
b0 j
b1 W
0Z"
b1 C"
1w
b100100 9
b100100 [
b100100 K"
b100000 :
b100000 \
b100000 6"
b100000 >"
b100000 b"
b100000 g"
b0 >
b0 ,"
b0 4"
b0 8"
b0 :"
b10100 4
b10100 &"
b10100 1"
b10100 d"
1G
b1000001000100001100011 =
b1000001000100001100011 %"
b1000001000100001100011 0"
b10000 @
b10000 $"
b10000 /"
b10000 Y"
b101 ,
b101 ("
b101 3"
b101 S"
b10000 J
b10000 #"
b10000 ."
b1 <
b1 m
b1 r
b1 v
b1 E"
b1 )
b1 f
b1 n
b1 s
b10 P
b10 g
b10 i
b10 p
b10 ?"
b10 O"
b10 T"
b1 I
b1 k
b1 q
b1000 #
1!
#400
0!
#425
1R
b0 Q
b0 T
b0 h
b0 F
b0 {
b0 P"
b0 .
b0 V
b0 Q"
0C
b0 *
b0 U
b0 ["
b11 L
b11 S
b11 Y
b1 '
b1 y
b1 F"
b1 h"
b10 &
b10 R"
b10 W"
b10 _"
b10 i"
1x
1l"
b0 C"
0w
b11000 3
b11000 e"
b11000 f"
0E
b0 l
b0 u
b0 t
b0 }
b0 +
b0 o
b0 V"
b0 X"
b0 W
0q"
b11111110000000000000110011100011 ?
b11111110000000000000110011100011 7"
b11111110000000000000110011100011 ="
b11000 6
b11000 M"
b11000 c"
b1 J"
b10 M
b10 @"
b10 G"
b10 \"
b1 H
b1 D"
b1 I"
b10000 <
b10000 m
b10000 r
b10000 v
b10000 E"
b101 )
b101 f
b101 n
b101 s
b11111111111111111111111111111101 P
b11111111111111111111111111111101 g
b11111111111111111111111111111101 i
b11111111111111111111111111111101 p
b11111111111111111111111111111101 ?"
b11111111111111111111111111111101 O"
b11111111111111111111111111111101 T"
b0 I
b0 k
b0 q
b0 4
b0 &"
b0 1"
b0 d"
0G
b0 =
b0 %"
b0 0"
b0 @
b0 $"
b0 /"
b0 Y"
b0 ,
b0 ("
b0 3"
b0 S"
b0 /
b0 '"
b0 2"
b0 N"
b0 J
b0 #"
b0 ."
b1 r"
b11000 9
b11000 [
b11000 K"
b10100 :
b10100 \
b10100 6"
b10100 >"
b10100 b"
b10100 g"
b1001 #
1!
#450
0!
#475
b11111111111111111111111111111000 A
b11111111111111111111111111111000 _
b11111111111111111111111111111000 -"
b11111111111111111111111111111000 ;"
b10000 K
b10000 b
b10000 ""
1B
b1010000 a
b11100 3
b11100 e"
b11100 f"
b10011 ?
b10011 7"
b10011 ="
b11100 6
b11100 M"
b11100 c"
b1100 5
b1100 +"
b1100 a"
b1100011 <"
b1100011 `
b10000 '
b10000 y
b10000 F"
b10000 h"
b11111111111111111111111111111101 &
b11111111111111111111111111111101 R"
b11111111111111111111111111111101 W"
b11111111111111111111111111111101 _"
b11111111111111111111111111111101 i"
0x
0l"
b11100 9
b11100 [
b11100 K"
b11000 :
b11000 \
b11000 6"
b11000 >"
b11000 b"
b11000 g"
b1100 7
b1100 ]
b1100 L"
b1100 `"
b10100 8
b10100 ^
b10100 5"
b10100 9"
b11111110000000000000110011100011 >
b11111110000000000000110011100011 ,"
b11111110000000000000110011100011 4"
b11111110000000000000110011100011 8"
b11111110000000000000110011100011 :"
b10000 4
b10000 &"
b10000 1"
b10000 d"
b0 <
b0 m
b0 r
b0 v
b0 E"
b0 )
b0 f
b0 n
b0 s
b0 P
b0 g
b0 i
b0 p
b0 ?"
b0 O"
b0 T"
b10000 J"
b11111111111111111111111111111101 M
b11111111111111111111111111111101 @"
b11111111111111111111111111111101 G"
b11111111111111111111111111111101 \"
b0 H
b0 D"
b0 I"
b1010 #
1!
#500
0!
#525
0B
b1110001 K
b1110001 b
b1110001 ""
b11100010 a
01
1C
b100 L
b100 S
b100 Y
b0 A
b0 _
b0 -"
b0 ;"
b1100 3
b1100 e"
b1100 f"
b0 '
b0 y
b0 F"
b0 h"
b0 &
b0 R"
b0 W"
b0 _"
b0 i"
1E
b10 p"
b11001 l
b1111111000 X
b11001 }
b1 W
b11000 5
b11000 +"
b11000 a"
b10011 <"
b10011 `
b100000 6
b100000 M"
b100000 c"
b0 J"
b0 M
b0 @"
b0 G"
b0 \"
b1100 4
b1100 &"
b1100 1"
b1100 d"
1G
b11111110000000000000110011100011 =
b11111110000000000000110011100011 %"
b11111110000000000000110011100011 0"
b11111111111111111111111111111000 @
b11111111111111111111111111111000 $"
b11111111111111111111111111111000 /"
b11111111111111111111111111111000 Y"
b10000 J
b10000 #"
b10000 ."
b11000 7
b11000 ]
b11000 L"
b11000 `"
b11000 8
b11000 ^
b11000 5"
b11000 9"
b10011 >
b10011 ,"
b10011 4"
b10011 8"
b10011 :"
b100000 9
b100000 [
b100000 K"
b11100 :
b11100 \
b11100 6"
b11100 >"
b11100 b"
b11100 g"
b1011 #
1!
#550
0!
#575
b0 K
b0 b
b0 ""
b0 a
0C
b11 L
b11 S
b11 Y
b100001000000010010011 ?
b100001000000010010011 7"
b100001000000010010011 ="
b10000 6
b10000 M"
b10000 c"
b0 <"
b0 `
1q"
b10000 3
b10000 e"
b10000 f"
0E
b0 l
b0 X
b0 }
b0 W
b10000 9
b10000 [
b10000 K"
b1100 :
b1100 \
b1100 6"
b1100 >"
b1100 b"
b1100 g"
b0 >
b0 ,"
b0 4"
b0 8"
b0 :"
b10 r"
b0 4
b0 &"
b0 1"
b0 d"
0G
b0 =
b0 %"
b0 0"
b0 @
b0 $"
b0 /"
b0 Y"
b0 J
b0 #"
b0 ."
b11001 <
b11001 m
b11001 r
b11001 v
b11001 E"
b1100 #
1!
#600
0!
#625
b1110001 K
b1110001 b
b1110001 ""
b11100010 a
b1 A
b1 _
b1 -"
b1 ;"
b10 -
b10 )"
b10 m"
b10 0
b10 *"
b10 n"
b10100 3
b10100 e"
b10100 f"
b11001 '
b11001 y
b11001 F"
b11001 h"
b1101 5
b1101 +"
b1101 a"
b10011 <"
b10011 `
b1 k"
b1 j"
b1 !"
b1 ~
b1000001000100001100011 ?
b1000001000100001100011 7"
b1000001000100001100011 ="
b10100 6
b10100 M"
b10100 c"
b11001 J"
b0 <
b0 m
b0 r
b0 v
b0 E"
b11000 4
b11000 &"
b11000 1"
b11000 d"
b1101 7
b1101 ]
b1101 L"
b1101 `"
b1100 8
b1100 ^
b1100 5"
b1100 9"
b100001000000010010011 >
b100001000000010010011 ,"
b100001000000010010011 4"
b100001000000010010011 8"
b100001000000010010011 :"
b10100 9
b10100 [
b10100 K"
b10000 :
b10000 \
b10000 6"
b10000 >"
b10000 b"
b10000 g"
b1101 #
1!
#650
0!
#675
1C
11
1B
b10000 K
b10000 b
b10000 ""
0R
b11 Q
b11 T
b11 h
b1010000 a
b100000 3
b100000 e"
b100000 f"
b10000 A
b10000 _
b10000 -"
b10000 ;"
b101 -
b101 )"
b101 m"
b1 *
b1 U
b1 ["
b11111110000000000000110011100011 ?
b11111110000000000000110011100011 7"
b11111110000000000000110011100011 ="
b100000 6
b100000 M"
b100000 c"
b10100 5
b10100 +"
b10100 a"
b1100011 <"
b1100011 `
b10 k"
b10 !"
b1 l
b1 u
b1 t
b1 }
b10 +
b10 o
b10 V"
b10 X"
b10 .
b10 V
b10 Q"
b1 j
b11 W
1Z"
b0 '
b0 y
b0 F"
b0 h"
b11000 9
b11000 [
b11000 K"
b10100 :
b10100 \
b10100 6"
b10100 >"
b10100 b"
b10100 g"
b100000 7
b100000 ]
b100000 L"
b100000 `"
b10000 8
b10000 ^
b10000 5"
b10000 9"
b1000001000100001100011 >
b1000001000100001100011 ,"
b1000001000100001100011 4"
b1000001000100001100011 8"
b1000001000100001100011 :"
b1101 4
b1101 &"
b1101 1"
b1101 d"
b100001000000010010011 =
b100001000000010010011 %"
b100001000000010010011 0"
b1 @
b1 $"
b1 /"
b1 Y"
b10 ,
b10 ("
b10 3"
b10 S"
b10 /
b10 '"
b10 2"
b10 N"
b1110001 J
b1110001 #"
b1110001 ."
b0 J"
b1110 #
1!
#700
0!
