computerArchitecture/lab2-english/lab2/out/waveform.vcd
$date
	Mon Nov 20 13:46:38 2023
$end
$version
	Icarus Verilog
$end
$timescale
	1s
$end
$scope module TestBench $end
$var reg 1 ! Clk $end
$var reg 1 " Reset $end
$var integer 32 # counter [31:0] $end
$var integer 32 $ flush [31:0] $end
$var integer 32 % i [31:0] $end
$var integer 32 & outfile [31:0] $end
$var integer 32 ' stall [31:0] $end
$scope module CPU $end
$var wire 1 ( ID_FlushIF $end
$var wire 1 ! clk_i $end
$var wire 1 " rst_i $end
$var wire 32 ) wbwd [31:0] $end
$var wire 5 * wbrd [4:0] $end
$var wire 1 + stall $end
$var wire 32 , r24 [31:0] $end
$var wire 32 - r23 [31:0] $end
$var wire 32 . r22 [31:0] $end
$var wire 32 / r21 [31:0] $end
$var wire 32 0 r20 [31:0] $end
$var wire 32 1 r12 [31:0] $end
$var wire 32 2 r11 [31:0] $end
$var wire 32 3 r10 [31:0] $end
$var wire 1 4 pcwrite $end
$var wire 32 5 pc4 [31:0] $end
$var wire 32 6 pc3 [31:0] $end
$var wire 32 7 pc2 [31:0] $end
$var wire 32 8 pc1 [31:0] $end
$var wire 32 9 pc0 [31:0] $end
$var wire 1 : noop $end
$var wire 5 ; memrd [4:0] $end
$var wire 32 < inst2 [31:0] $end
$var wire 32 = inst1 [31:0] $end
$var wire 32 > inst0 [31:0] $end
$var wire 32 ? imm1 [31:0] $end
$var wire 32 @ imm0 [31:0] $end
$var wire 2 A fb [1:0] $end
$var wire 2 B fa [1:0] $end
$var wire 2 C ctrl3 [1:0] $end
$var wire 4 D ctrl2 [3:0] $end
$var wire 7 E ctrl1 [6:0] $end
$var wire 7 F ctrl0 [6:0] $end
$var wire 3 G aluop3 [2:0] $end
$var wire 32 H alu4 [31:0] $end
$var wire 32 I alu3 [31:0] $end
$var wire 32 J alu2 [31:0] $end
$var wire 32 K alu1 [31:0] $end
$var wire 32 L alu0 [31:0] $end
$var wire 1 M Branch_o $end
$scope module ALU $end
$var wire 3 N op [2:0] $end
$var wire 32 O c [31:0] $end
$var wire 32 P b [31:0] $end
$var wire 32 Q a [31:0] $end
$upscope $end
$scope module ALUControl $end
$var wire 2 R aluop [1:0] $end
$var wire 10 S inst [9:0] $end
$var wire 3 T aluop3 [2:0] $end
$upscope $end
$scope module Add0 $end
$var wire 32 U b [31:0] $end
$var wire 32 V c [31:0] $end
$var wire 32 W a [31:0] $end
$upscope $end
$scope module Add1 $end
$var wire 32 X c [31:0] $end
$var wire 32 Y b [31:0] $end
$var wire 32 Z a [31:0] $end
$upscope $end
$scope module Control $end
$var wire 7 [ inst [6:0] $end
$var wire 8 \ out [7:0] $end
$var wire 1 : noop $end
$var wire 7 ] ctrl [6:0] $end
$var wire 1 M Branch_o $end
$upscope $end
$scope module Data_Memory $end
$var wire 1 ^ MemRead_i $end
$var wire 1 _ MemWrite_i $end
$var wire 1 ! clk_i $end
$var wire 32 ` data_o [31:0] $end
$var wire 32 a data_i [31:0] $end
$var wire 32 b addr_i [31:0] $end
$upscope $end
$scope module EXMEM $end
$var wire 32 c alui [31:0] $end
$var wire 32 d aluo [31:0] $end
$var wire 1 ! clk $end
$var wire 4 e ctrli [3:0] $end
$var wire 4 f ctrlo [3:0] $end
$var wire 5 g insti [4:0] $end
$var wire 5 h insto [4:0] $end
$var wire 32 i r2o [31:0] $end
$var wire 1 " rst $end
$var wire 32 j r2i [31:0] $end
$var reg 32 k alu [31:0] $end
$var reg 4 l ctrl [3:0] $end
$var reg 5 m inst [4:0] $end
$var reg 32 n r2 [31:0] $end
$upscope $end
$scope module FU $end
$var wire 5 o exrs1 [4:0] $end
$var wire 5 p exrs2 [4:0] $end
$var wire 5 q memrd [4:0] $end
$var wire 1 r memregwrite $end
$var wire 1 s wbregwrite $end
$var wire 5 t wbrd [4:0] $end
$var wire 2 u fb [1:0] $end
$var wire 2 v fa [1:0] $end
$upscope $end
$scope module Hazard_Detection $end
$var wire 1 + Stall_o $end
$var wire 1 w memread $end
$var wire 1 : noop $end
$var wire 1 4 pcwrite $end
$var wire 5 x rd [4:0] $end
$var wire 5 y rs1 [4:0] $end
$var wire 5 z rs2 [4:0] $end
$upscope $end
$scope module IDEX $end
$var wire 1 ! clk $end
$var wire 7 { ctrli [6:0] $end
$var wire 7 | ctrlo [6:0] $end
$var wire 32 } immo [31:0] $end
$var wire 32 ~ insto [31:0] $end
$var wire 32 !" r1o [31:0] $end
$var wire 32 "" r2o [31:0] $end
$var wire 1 " rst $end
$var wire 32 #" r2i [31:0] $end
$var wire 32 $" r1i [31:0] $end
$var wire 32 %" insti [31:0] $end
$var wire 32 &" immi [31:0] $end
$var reg 7 '" ctrl [6:0] $end
$var reg 32 (" imm [31:0] $end
$var reg 32 )" inst [31:0] $end
$var reg 32 *" r1 [31:0] $end
$var reg 32 +" r2 [31:0] $end
$upscope $end
$scope module IFID $end
$var wire 1 ! clk $end
$var wire 1 ( flush $end
$var wire 32 ," insto [31:0] $end
$var wire 32 -" pco [31:0] $end
$var wire 1 " rst $end
$var wire 1 + stall $end
$var wire 32 ." pci [31:0] $end
$var wire 32 /" insti [31:0] $end
$var reg 32 0" inst [31:0] $end
$var reg 32 1" pc [31:0] $end
$upscope $end
$scope module ImmGen $end
$var wire 32 2" inst [31:0] $end
$var wire 32 3" res [31:0] $end
$var wire 10 4" func [9:0] $end
$upscope $end
$scope module Instruction_Memory $end
$var wire 32 5" instr_o [31:0] $end
$var wire 32 6" addr_i [31:0] $end
$upscope $end
$scope module MEMWB $end
$var wire 32 7" alu1i [31:0] $end
$var wire 32 8" alu1o [31:0] $end
$var wire 32 9" alu2i [31:0] $end
$var wire 32 :" alu2o [31:0] $end
$var wire 1 ! clk $end
$var wire 2 ;" ctrli [1:0] $end
$var wire 2 <" ctrlo [1:0] $end
$var wire 5 =" rdi [4:0] $end
$var wire 1 " rst $end
$var wire 5 >" rdo [4:0] $end
$var reg 32 ?" alu1 [31:0] $end
$var reg 32 @" alu2 [31:0] $end
$var reg 2 A" ctrl [1:0] $end
$var reg 32 B" rd [31:0] $end
$upscope $end
$scope module MUX0 $end
$var wire 32 C" a0 [31:0] $end
$var wire 32 D" a1 [31:0] $end
$var wire 1 ( sel $end
$var wire 32 E" b [31:0] $end
$upscope $end
$scope module MUX1 $end
$var wire 32 F" a0 [31:0] $end
$var wire 32 G" a2 [31:0] $end
$var wire 2 H" sel [1:0] $end
$var wire 32 I" b [31:0] $end
$var wire 32 J" a1 [31:0] $end
$upscope $end
$scope module MUX2 $end
$var wire 32 K" a0 [31:0] $end
$var wire 32 L" a2 [31:0] $end
$var wire 2 M" sel [1:0] $end
$var wire 32 N" b [31:0] $end
$var wire 32 O" a1 [31:0] $end
$upscope $end
$scope module MUX3 $end
$var wire 32 P" a0 [31:0] $end
$var wire 32 Q" a1 [31:0] $end
$var wire 1 R" sel $end
$var wire 32 S" b [31:0] $end
$upscope $end
$scope module MUX4 $end
$var wire 32 T" a0 [31:0] $end
$var wire 32 U" a1 [31:0] $end
$var wire 1 V" sel $end
$var wire 32 W" b [31:0] $end
$upscope $end
$scope module PC $end
$var wire 1 4 PCWrite_i $end
$var wire 1 ! clk_i $end
$var wire 32 X" pc_i [31:0] $end
$var wire 1 " rst_i $end
$var reg 32 Y" pc_o [31:0] $end
$upscope $end
$scope module Registers $end
$var wire 5 Z" RDaddr_i [4:0] $end
$var wire 32 [" RDdata_i [31:0] $end
$var wire 5 \" RS1addr_i [4:0] $end
$var wire 5 ]" RS2addr_i [4:0] $end
$var wire 1 ^" RegWrite_i $end
$var wire 1 ! clk_i $end
$var wire 1 " rst_i $end
$var wire 32 _" RS2data_o [31:0] $end
$var wire 32 `" RS1data_o [31:0] $end
$var integer 32 a" i [31:0] $end
$upscope $end
$upscope $end
$upscope $end
$enddefinitions $end
#0
$dumpvars
bx a"
bx `"
bx _"
x^"
bx ]"
bx \"
bx ["
bx Z"
bx Y"
bx X"
bx W"
xV"
bx U"
bx T"
bx S"
xR"
bx Q"
bx P"
bx O"
bx N"
bx M"
bx L"
bx K"
bx J"
bx I"
bx H"
bx G"
bx F"
bx E"
bx D"
bx C"
bx B"
bx A"
bx @"
bx ?"
bx >"
bx ="
bx <"
bx ;"
bx :"
bx 9"
bx 8"
bx 7"
bx 6"
bx 5"
bx 4"
bx 3"
bx 2"
bx 1"
bx 0"
bx /"
bx ."
bx -"
bx ,"
bx +"
bx *"
bx )"
bx ("
bx '"
bx &"
bx %"
bx $"
bx #"
bx ""
bx !"
bx ~
bx }
bx |
bx {
bx z
bx y
bx x
xw
bx v
bx u
bx t
xs
xr
bx q
bx p
bx o
bx n
bx m
bx l
bx k
bx j
bx i
bx h
bx g
bx f
bx e
bx d
bx c
bx b
bx a
bx `
x_
x^
bx ]
bx \
bx [
bx Z
bx Y
bx X
bx W
bx V
b100 U
bx T
bx S
bx R
bx Q
bx P
bx O
bx N
xM
bx L
bx K
bx J
bx I
bx H
bx G
bx F
bx E
bx D
bx C
bx B
bx A
bx @
bx ?
bx >
bx =
bx <
bx ;
x:
bx 9
bx 8
bx 7
bx 6
bx 5
x4
bx 3
bx 2
bx 1
bx 0
bx /
bx .
bx -
bx ,
x+
bx *
bx )
x(
b0 '
b11 &
b100000 %
b0 $
b0 #
1"
0!
$end
#6
b0 L
b0 O
b0 c
0(
0M
b0 F
b0 ]
b0 {
b100 5
b100 E"
b100 X"
b0 \
14
b11 G
b11 N
b11 T
b0 B
b0 v
b0 H"
b0 A
b0 u
b0 M"
b0 6
b0 X
b0 D"
b0 @
b0 Z
b0 &"
b0 3"
0:
0+
b0 J
b0 `
b0 9"
b0 3
b0 $"
b0 `"
b0 0
b0 #"
b0 _"
b1110000000000000000010011 >
b1110000000000000000010011 /"
b1110000000000000000010011 5"
b0 4"
b0 [
b0 ]"
b0 \"
b0 z
b0 y
b0 g
b0 S
b0 p
b0 o
b0 x
b0 -
b0 P
b0 S"
b0 .
b0 j
b0 N"
b0 P"
b0 1
b0 Q
b0 I"
b0 e
b0 R
0R"
0w
b0 ;"
0_
0^
0r
b0 *
b0 t
b0 >"
b0 Z"
b0 )
b0 J"
b0 O"
b0 W"
b0 ["
0V"
0s
0^"
b100 8
b100 V
b100 C"
b0 9
b0 W
b0 ."
b0 6"
b0 Y"
b0 =
b0 %"
b0 ,"
b0 0"
b0 2"
b0 7
b0 Y
b0 -"
b0 1"
b0 <
b0 ~
b0 )"
b0 ?
b0 }
b0 ("
b0 Q"
b0 /
b0 ""
b0 +"
b0 K"
b0 2
b0 !"
b0 *"
b0 F"
b0 E
b0 |
b0 '"
b0 ;
b0 h
b0 m
b0 q
b0 ="
b0 ,
b0 a
b0 i
b0 n
b0 K
b0 b
b0 d
b0 k
b0 7"
b0 G"
b0 L"
b0 D
b0 f
b0 l
b0 B"
b0 I
b0 :"
b0 @"
b0 U"
b0 H
b0 8"
b0 ?"
b0 T"
b0 C
b0 <"
b0 A"
b100000 a"
0"
#12
1"
#25
b1110001 F
b1110001 ]
b1110001 {
b11100010 \
b11100 6
b11100 X
b11100 D"
b11100 @
b11100 Z
b11100 &"
b11100 3"
b111000 0
b111000 #"
b111000 _"
b10011 4"
b10011 [
b11100 ]"
b11100 z
b10101100000000000010010011 >
b10101100000000000010010011 /"
b10101100000000000010010011 5"
b1000 5
b1000 E"
b1000 X"
b1110000000000000000010011 =
b1110000000000000000010011 %"
b1110000000000000000010011 ,"
b1110000000000000000010011 0"
b1110000000000000000010011 2"
b1000 8
b1000 V
b1000 C"
b100 9
b100 W
b100 ."
b100 6"
b100 Y"
b1 #
1!
#50
0!
#75
b11100 L
b11100 O
b11100 c
b101011 @
b101011 Z
b101011 &"
b101011 3"
b0 0
b0 #"
b0 _"
b11100 -
b11100 P
b11100 S"
b10000000000011 >
b10000000000011 /"
b10000000000011 5"
b1100 5
b1100 E"
b1100 X"
b1011 ]"
b1011 z
b11100 p
b111000 .
b111000 j
b111000 N"
b111000 P"
b1 e
b11 R
1R"
b1100 8
b1100 V
b1100 C"
b1000 9
b1000 W
b1000 ."
b1000 6"
b1000 Y"
b101111 6
b101111 X
b101111 D"
b100 7
b100 Y
b100 -"
b100 1"
b10101100000000000010010011 =
b10101100000000000010010011 %"
b10101100000000000010010011 ,"
b10101100000000000010010011 0"
b10101100000000000010010011 2"
b1110000000000000000010011 <
b1110000000000000000010011 ~
b1110000000000000000010011 )"
b11100 ?
b11100 }
b11100 ("
b11100 Q"
b111000 /
b111000 ""
b111000 +"
b111000 K"
b1110001 E
b1110001 |
b1110001 '"
b10 #
1!
#100
0!
#125
b101011 L
b101011 O
b101011 c
b1000111 F
b1000111 ]
b1000111 {
b101011 \
b0 @
b0 Z
b0 &"
b0 3"
b1 ;"
1r
b1 g
b1000 S
b1011 p
b1 x
b101011 -
b101011 P
b101011 S"
b0 .
b0 j
b0 N"
b0 P"
b100000011 4"
b11 [
b0 ]"
b0 z
b11000100000000000010010011 >
b11000100000000000010010011 /"
b11000100000000000010010011 5"
b10000 5
b10000 E"
b10000 X"
b111000 ,
b111000 a
b111000 i
b111000 n
b11100 K
b11100 b
b11100 d
b11100 k
b11100 7"
b11100 G"
b11100 L"
b1 D
b1 f
b1 l
b10101100000000000010010011 <
b10101100000000000010010011 ~
b10101100000000000010010011 )"
b101011 ?
b101011 }
b101011 ("
b101011 Q"
b0 /
b0 ""
b0 +"
b0 K"
b1000 6
b1000 X
b1000 D"
b1000 7
b1000 Y
b1000 -"
b1000 1"
b10000000000011 =
b10000000000011 %"
b10000000000011 ,"
b10000000000011 0"
b10000000000011 2"
b10000 8
b10000 V
b10000 C"
b1100 9
b1100 W
b1100 ."
b1100 6"
b1100 Y"
b11 #
1!
#150
0!
#175
b1110001 F
b1110001 ]
b1110001 {
b0 L
b0 O
b0 c
b11100010 \
b11 G
b11 N
b11 T
b110001 @
b110001 Z
b110001 &"
b110001 3"
b0 >
b0 /"
b0 5"
b10100 5
b10100 E"
b10100 X"
b10011 4"
b10011 [
b10001 ]"
b10001 z
b0 g
b10 S
b0 p
b0 x
b0 -
b0 P
b0 S"
b111 e
b0 R
1w
b11100 )
b11100 J"
b11100 O"
b11100 W"
b11100 ["
b10100 8
b10100 V
b10100 C"
b10000 9
b10000 W
b10000 ."
b10000 6"
b10000 Y"
b111101 6
b111101 X
b111101 D"
b1100 7
b1100 Y
b1100 -"
b1100 1"
b11000100000000000010010011 =
b11000100000000000010010011 %"
b11000100000000000010010011 ,"
b11000100000000000010010011 0"
b11000100000000000010010011 2"
b10000000000011 <
b10000000000011 ~
b10000000000011 )"
b0 ?
b0 }
b0 ("
b0 Q"
b1000111 E
b1000111 |
b1000111 '"
b1 ;
b1 h
b1 m
b1 q
b1 ="
b0 ,
b0 a
b0 i
b0 n
b101011 K
b101011 b
b101011 d
b101011 k
b101011 7"
b101011 G"
b101011 L"
b11100 H
b11100 8"
b11100 ?"
b11100 T"
b100 #
1!
#200
0!
#225
b110001 L
b110001 O
b110001 c
b0 F
b0 ]
b0 {
b0 \
b0 B
b0 v
b0 H"
b101 J
b101 `
b101 9"
b0 @
b0 Z
b0 &"
b0 3"
b1 *
b1 t
b1 >"
b1 Z"
b101011 )
b101011 J"
b101011 O"
b101011 W"
b101011 ["
1s
1^"
b11 ;"
1^
b1 g
b1000 S
b10001 p
b1 x
b110001 -
b110001 P
b110001 S"
b1 e
b11 R
0w
b0 4"
b0 [
b0 ]"
b0 z
b11000 5
b11000 E"
b11000 X"
b1 B"
b101011 H
b101011 8"
b101011 ?"
b101011 T"
b1 C
b1 <"
b1 A"
b0 ;
b0 h
b0 m
b0 q
b0 ="
b0 K
b0 b
b0 d
b0 k
b0 7"
b0 G"
b0 L"
b111 D
b111 f
b111 l
b11000100000000000010010011 <
b11000100000000000010010011 ~
b11000100000000000010010011 )"
b110001 ?
b110001 }
b110001 ("
b110001 Q"
b1110001 E
b1110001 |
b1110001 '"
b10000 6
b10000 X
b10000 D"
b10000 7
b10000 Y
b10000 -"
b10000 1"
b0 =
b0 %"
b0 ,"
b0 0"
b0 2"
b11000 8
b11000 V
b11000 C"
b10100 9
b10100 W
b10100 ."
b10100 6"
b10100 Y"
b101 #
1!
#250
0!
#275
b0 L
b0 O
b0 c
b11 G
b11 N
b11 T
b0 J
b0 `
b0 9"
b11100 5
b11100 E"
b11100 X"
b0 g
b0 S
b0 p
b0 x
b0 -
b0 P
b0 S"
b0 e
b0 R
0R"
b1 ;"
0^
b0 *
b0 t
b0 >"
b0 Z"
b101 )
b101 J"
b101 O"
b101 W"
b101 ["
1V"
0s
0^"
b11100 8
b11100 V
b11100 C"
b11000 9
b11000 W
b11000 ."
b11000 6"
b11000 Y"
b10100 6
b10100 X
b10100 D"
b10100 7
b10100 Y
b10100 -"
b10100 1"
b0 <
b0 ~
b0 )"
b0 ?
b0 }
b0 ("
b0 Q"
b0 E
b0 |
b0 '"
b1 ;
b1 h
b1 m
b1 q
b1 ="
b110001 K
b110001 b
b110001 d
b110001 k
b110001 7"
b110001 G"
b110001 L"
b1 D
b1 f
b1 l
b0 B"
b101 I
b101 :"
b101 @"
b101 U"
b0 H
b0 8"
b0 ?"
b0 T"
b10 C
b10 <"
b10 A"
b110 #
1!
#300
0!
#325
b0 B
b0 v
b0 H"
b0 A
b0 u
b0 M"
b1 *
b1 t
b1 >"
b1 Z"
b110001 )
b110001 J"
b110001 O"
b110001 W"
b110001 ["
0V"
1s
1^"
b0 ;"
0r
b100000 5
b100000 E"
b100000 X"
b1 B"
b0 I
b0 :"
b0 @"
b0 U"
b110001 H
b110001 8"
b110001 ?"
b110001 T"
b1 C
b1 <"
b1 A"
b0 ;
b0 h
b0 m
b0 q
b0 ="
b0 K
b0 b
b0 d
b0 k
b0 7"
b0 G"
b0 L"
b0 D
b0 f
b0 l
b11000 6
b11000 X
b11000 D"
b11000 7
b11000 Y
b11000 -"
b11000 1"
b100000 8
b100000 V
b100000 C"
b11100 9
b11100 W
b11100 ."
b11100 6"
b11100 Y"
b111 #
1!
#350
0!
#375
b100100 5
b100100 E"
b100100 X"
b0 *
b0 t
b0 >"
b0 Z"
b0 )
b0 J"
b0 O"
b0 W"
b0 ["
0s
0^"
b100100 8
b100100 V
b100100 C"
b100000 9
b100000 W
b100000 ."
b100000 6"
b100000 Y"
b11100 6
b11100 X
b11100 D"
b11100 7
b11100 Y
b11100 -"
b11100 1"
b0 B"
b0 H
b0 8"
b0 ?"
b0 T"
b0 C
b0 <"
b0 A"
b1000 #
1!
#400
0!
#425
b101000 5
b101000 E"
b101000 X"
b100000 6
b100000 X
b100000 D"
b100000 7
b100000 Y
b100000 -"
b100000 1"
b101000 8
b101000 V
b101000 C"
b100100 9
b100100 W
b100100 ."
b100100 6"
b100100 Y"
b1001 #
1!
#450
0!
#475
b101100 5
b101100 E"
b101100 X"
b101100 8
b101100 V
b101100 C"
b101000 9
b101000 W
b101000 ."
b101000 6"
b101000 Y"
b100100 6
b100100 X
b100100 D"
b100100 7
b100100 Y
b100100 -"
b100100 1"
b1010 #
1!
#500
0!
#525
b110000 5
b110000 E"
b110000 X"
b101000 6
b101000 X
b101000 D"
b101000 7
b101000 Y
b101000 -"
b101000 1"
b110000 8
b110000 V
b110000 C"
b101100 9
b101100 W
b101100 ."
b101100 6"
b101100 Y"
b1011 #
1!
#550
0!
#575
b110100 5
b110100 E"
b110100 X"
b110100 8
b110100 V
b110100 C"
b110000 9
b110000 W
b110000 ."
b110000 6"
b110000 Y"
b101100 6
b101100 X
b101100 D"
b101100 7
b101100 Y
b101100 -"
b101100 1"
b1100 #
1!
#600
0!
#625
b111000 5
b111000 E"
b111000 X"
b110000 6
b110000 X
b110000 D"
b110000 7
b110000 Y
b110000 -"
b110000 1"
b111000 8
b111000 V
b111000 C"
b110100 9
b110100 W
b110100 ."
b110100 6"
b110100 Y"
b1101 #
1!
#650
0!
#675
b111100 5
b111100 E"
b111100 X"
b111100 8
b111100 V
b111100 C"
b111000 9
b111000 W
b111000 ."
b111000 6"
b111000 Y"
b110100 6
b110100 X
b110100 D"
b110100 7
b110100 Y
b110100 -"
b110100 1"
b1110 #
1!
#700
0!
#725
b1000000 5
b1000000 E"
b1000000 X"
b111000 6
b111000 X
b111000 D"
b111000 7
b111000 Y
b111000 -"
b111000 1"
b1000000 8
b1000000 V
b1000000 C"
b111100 9
b111100 W
b111100 ."
b111100 6"
b111100 Y"
b1111 #
1!
#750
0!
#775
b1000100 5
b1000100 E"
b1000100 X"
b1000100 8
b1000100 V
b1000100 C"
b1000000 9
b1000000 W
b1000000 ."
b1000000 6"
b1000000 Y"
b111100 6
b111100 X
b111100 D"
b111100 7
b111100 Y
b111100 -"
b111100 1"
b10000 #
1!
#800
0!
#825
b1001000 5
b1001000 E"
b1001000 X"
b1000000 6
b1000000 X
b1000000 D"
b1000000 7
b1000000 Y
b1000000 -"
b1000000 1"
b1001000 8
b1001000 V
b1001000 C"
b1000100 9
b1000100 W
b1000100 ."
b1000100 6"
b1000100 Y"
b10001 #
1!
#850
0!
#875
b1001100 5
b1001100 E"
b1001100 X"
b1001100 8
b1001100 V
b1001100 C"
b1001000 9
b1001000 W
b1001000 ."
b1001000 6"
b1001000 Y"
b1000100 6
b1000100 X
b1000100 D"
b1000100 7
b1000100 Y
b1000100 -"
b1000100 1"
b10010 #
1!
#900
0!
#925
b1010000 5
b1010000 E"
b1010000 X"
b1001000 6
b1001000 X
b1001000 D"
b1001000 7
b1001000 Y
b1001000 -"
b1001000 1"
b1010000 8
b1010000 V
b1010000 C"
b1001100 9
b1001100 W
b1001100 ."
b1001100 6"
b1001100 Y"
b10011 #
1!
#950
0!
#975
b1010100 5
b1010100 E"
b1010100 X"
b1010100 8
b1010100 V
b1010100 C"
b1010000 9
b1010000 W
b1010000 ."
b1010000 6"
b1010000 Y"
b1001100 6
b1001100 X
b1001100 D"
b1001100 7
b1001100 Y
b1001100 -"
b1001100 1"
b10100 #
1!
#1000
0!
#1025
b1011000 5
b1011000 E"
b1011000 X"
b1010000 6
b1010000 X
b1010000 D"
b1010000 7
b1010000 Y
b1010000 -"
b1010000 1"
b1011000 8
b1011000 V
b1011000 C"
b1010100 9
b1010100 W
b1010100 ."
b1010100 6"
b1010100 Y"
b10101 #
1!
#1050
0!
#1075
b1011100 5
b1011100 E"
b1011100 X"
b1011100 8
b1011100 V
b1011100 C"
b1011000 9
b1011000 W
b1011000 ."
b1011000 6"
b1011000 Y"
b1010100 6
b1010100 X
b1010100 D"
b1010100 7
b1010100 Y
b1010100 -"
b1010100 1"
b10110 #
1!
#1100
0!
#1125
b1100000 5
b1100000 E"
b1100000 X"
b1011000 6
b1011000 X
b1011000 D"
b1011000 7
b1011000 Y
b1011000 -"
b1011000 1"
b1100000 8
b1100000 V
b1100000 C"
b1011100 9
b1011100 W
b1011100 ."
b1011100 6"
b1011100 Y"
b10111 #
1!
#1150
0!
#1175
b1100100 5
b1100100 E"
b1100100 X"
b1100100 8
b1100100 V
b1100100 C"
b1100000 9
b1100000 W
b1100000 ."
b1100000 6"
b1100000 Y"
b1011100 6
b1011100 X
b1011100 D"
b1011100 7
b1011100 Y
b1011100 -"
b1011100 1"
b11000 #
1!
#1200
0!
#1225
b1101000 5
b1101000 E"
b1101000 X"
b1100000 6
b1100000 X
b1100000 D"
b1100000 7
b1100000 Y
b1100000 -"
b1100000 1"
b1101000 8
b1101000 V
b1101000 C"
b1100100 9
b1100100 W
b1100100 ."
b1100100 6"
b1100100 Y"
b11001 #
1!
#1250
0!
#1275
b1101100 5
b1101100 E"
b1101100 X"
b1101100 8
b1101100 V
b1101100 C"
b1101000 9
b1101000 W
b1101000 ."
b1101000 6"
b1101000 Y"
b1100100 6
b1100100 X
b1100100 D"
b1100100 7
b1100100 Y
b1100100 -"
b1100100 1"
b11010 #
1!
#1300
0!
#1325
b1110000 5
b1110000 E"
b1110000 X"
b1101000 6
b1101000 X
b1101000 D"
b1101000 7
b1101000 Y
b1101000 -"
b1101000 1"
b1110000 8
b1110000 V
b1110000 C"
b1101100 9
b1101100 W
b1101100 ."
b1101100 6"
b1101100 Y"
b11011 #
1!
#1350
0!
#1375
b1110100 5
b1110100 E"
b1110100 X"
b1110100 8
b1110100 V
b1110100 C"
b1110000 9
b1110000 W
b1110000 ."
b1110000 6"
b1110000 Y"
b1101100 6
b1101100 X
b1101100 D"
b1101100 7
b1101100 Y
b1101100 -"
b1101100 1"
b11100 #
1!
#1400
0!
#1425
b1111000 5
b1111000 E"
b1111000 X"
b1110000 6
b1110000 X
b1110000 D"
b1110000 7
b1110000 Y
b1110000 -"
b1110000 1"
b1111000 8
b1111000 V
b1111000 C"
b1110100 9
b1110100 W
b1110100 ."
b1110100 6"
b1110100 Y"
b11101 #
1!
#1450
0!
#1475
b1111100 5
b1111100 E"
b1111100 X"
b1111100 8
b1111100 V
b1111100 C"
b1111000 9
b1111000 W
b1111000 ."
b1111000 6"
b1111000 Y"
b1110100 6
b1110100 X
b1110100 D"
b1110100 7
b1110100 Y
b1110100 -"
b1110100 1"
b11110 #
1!
#1500
0!
#1525
b10000000 5
b10000000 E"
b10000000 X"
b1111000 6
b1111000 X
b1111000 D"
b1111000 7
b1111000 Y
b1111000 -"
b1111000 1"
b10000000 8
b10000000 V
b10000000 C"
b1111100 9
b1111100 W
b1111100 ."
b1111100 6"
b1111100 Y"
b11111 #
1!
#1550
0!
#1575
b10000100 5
b10000100 E"
b10000100 X"
b10000100 8
b10000100 V
b10000100 C"
b10000000 9
b10000000 W
b10000000 ."
b10000000 6"
b10000000 Y"
b1111100 6
b1111100 X
b1111100 D"
b1111100 7
b1111100 Y
b1111100 -"
b1111100 1"
b100000 #
1!
#1600
0!
#1625
b10001000 5
b10001000 E"
b10001000 X"
b10000000 6
b10000000 X
b10000000 D"
b10000000 7
b10000000 Y
b10000000 -"
b10000000 1"
b10001000 8
b10001000 V
b10001000 C"
b10000100 9
b10000100 W
b10000100 ."
b10000100 6"
b10000100 Y"
b100001 #
1!
#1650
0!
#1675
b10001100 5
b10001100 E"
b10001100 X"
b10001100 8
b10001100 V
b10001100 C"
b10001000 9
b10001000 W
b10001000 ."
b10001000 6"
b10001000 Y"
b10000100 6
b10000100 X
b10000100 D"
b10000100 7
b10000100 Y
b10000100 -"
b10000100 1"
b100010 #
1!
#1700
0!
#1725
b10010000 5
b10010000 E"
b10010000 X"
b10001000 6
b10001000 X
b10001000 D"
b10001000 7
b10001000 Y
b10001000 -"
b10001000 1"
b10010000 8
b10010000 V
b10010000 C"
b10001100 9
b10001100 W
b10001100 ."
b10001100 6"
b10001100 Y"
b100011 #
1!
#1750
0!
#1775
b10010100 5
b10010100 E"
b10010100 X"
b10010100 8
b10010100 V
b10010100 C"
b10010000 9
b10010000 W
b10010000 ."
b10010000 6"
b10010000 Y"
b10001100 6
b10001100 X
b10001100 D"
b10001100 7
b10001100 Y
b10001100 -"
b10001100 1"
b100100 #
1!
#1800
0!
#1825
b10011000 5
b10011000 E"
b10011000 X"
b10010000 6
b10010000 X
b10010000 D"
b10010000 7
b10010000 Y
b10010000 -"
b10010000 1"
b10011000 8
b10011000 V
b10011000 C"
b10010100 9
b10010100 W
b10010100 ."
b10010100 6"
b10010100 Y"
b100101 #
1!
#1850
0!
#1875
b10011100 5
b10011100 E"
b10011100 X"
b10011100 8
b10011100 V
b10011100 C"
b10011000 9
b10011000 W
b10011000 ."
b10011000 6"
b10011000 Y"
b10010100 6
b10010100 X
b10010100 D"
b10010100 7
b10010100 Y
b10010100 -"
b10010100 1"
b100110 #
1!
#1900
0!
#1925
b10100000 5
b10100000 E"
b10100000 X"
b10011000 6
b10011000 X
b10011000 D"
b10011000 7
b10011000 Y
b10011000 -"
b10011000 1"
b10100000 8
b10100000 V
b10100000 C"
b10011100 9
b10011100 W
b10011100 ."
b10011100 6"
b10011100 Y"
b100111 #
1!
#1950
0!
#1975
b10100100 5
b10100100 E"
b10100100 X"
b10100100 8
b10100100 V
b10100100 C"
b10100000 9
b10100000 W
b10100000 ."
b10100000 6"
b10100000 Y"
b10011100 6
b10011100 X
b10011100 D"
b10011100 7
b10011100 Y
b10011100 -"
b10011100 1"
b101000 #
1!
#2000
0!
#2025
b10101000 5
b10101000 E"
b10101000 X"
b10100000 6
b10100000 X
b10100000 D"
b10100000 7
b10100000 Y
b10100000 -"
b10100000 1"
b10101000 8
b10101000 V
b10101000 C"
b10100100 9
b10100100 W
b10100100 ."
b10100100 6"
b10100100 Y"
b101001 #
1!
#2050
0!
#2075
b10101100 5
b10101100 E"
b10101100 X"
b10101100 8
b10101100 V
b10101100 C"
b10101000 9
b10101000 W
b10101000 ."
b10101000 6"
b10101000 Y"
b10100100 6
b10100100 X
b10100100 D"
b10100100 7
b10100100 Y
b10100100 -"
b10100100 1"
b101010 #
1!
#2100
0!
#2125
b10110000 5
b10110000 E"
b10110000 X"
b10101000 6
b10101000 X
b10101000 D"
b10101000 7
b10101000 Y
b10101000 -"
b10101000 1"
b10110000 8
b10110000 V
b10110000 C"
b10101100 9
b10101100 W
b10101100 ."
b10101100 6"
b10101100 Y"
b101011 #
1!
#2150
0!
#2175
b10110100 5
b10110100 E"
b10110100 X"
b10110100 8
b10110100 V
b10110100 C"
b10110000 9
b10110000 W
b10110000 ."
b10110000 6"
b10110000 Y"
b10101100 6
b10101100 X
b10101100 D"
b10101100 7
b10101100 Y
b10101100 -"
b10101100 1"
b101100 #
1!
#2200
0!
#2225
b10111000 5
b10111000 E"
b10111000 X"
b10110000 6
b10110000 X
b10110000 D"
b10110000 7
b10110000 Y
b10110000 -"
b10110000 1"
b10111000 8
b10111000 V
b10111000 C"
b10110100 9
b10110100 W
b10110100 ."
b10110100 6"
b10110100 Y"
b101101 #
1!
#2250
0!
