computerArchitecture/lab2-english/lab2/out/waveform.vcd
$date
	Mon Nov 20 13:18:02 2023
$end
$version
	Icarus Verilog
$end
$timescale
	1s
$end
$scope module TestBench $end
$var reg 1 ! Clk $end
$var reg 1 " Reset $end
$var integer 32 # counter [31:0] $end
$var integer 32 $ flush [31:0] $end
$var integer 32 % i [31:0] $end
$var integer 32 & outfile [31:0] $end
$var integer 32 ' stall [31:0] $end
$scope module CPU $end
$var wire 1 ( ID_FlushIF $end
$var wire 1 ! clk_i $end
$var wire 1 " rst_i $end
$var wire 32 ) wbwd [31:0] $end
$var wire 5 * wbrd [4:0] $end
$var wire 1 + stall $end
$var wire 32 , r24 [31:0] $end
$var wire 32 - r23 [31:0] $end
$var wire 32 . r22 [31:0] $end
$var wire 32 / r21 [31:0] $end
$var wire 32 0 r20 [31:0] $end
$var wire 32 1 r12 [31:0] $end
$var wire 32 2 r11 [31:0] $end
$var wire 32 3 r10 [31:0] $end
$var wire 1 4 pcwrite $end
$var wire 32 5 pc4 [31:0] $end
$var wire 32 6 pc3 [31:0] $end
$var wire 32 7 pc2 [31:0] $end
$var wire 32 8 pc1 [31:0] $end
$var wire 32 9 pc0 [31:0] $end
$var wire 1 : noop $end
$var wire 5 ; memrd [4:0] $end
$var wire 32 < inst2 [31:0] $end
$var wire 32 = inst1 [31:0] $end
$var wire 32 > inst0 [31:0] $end
$var wire 32 ? imm1 [31:0] $end
$var wire 32 @ imm0 [31:0] $end
$var wire 2 A fb [1:0] $end
$var wire 2 B fa [1:0] $end
$var wire 2 C ctrl3 [1:0] $end
$var wire 4 D ctrl2 [3:0] $end
$var wire 7 E ctrl1 [6:0] $end
$var wire 7 F ctrl0 [6:0] $end
$var wire 3 G aluop3 [2:0] $end
$var wire 32 H alu4 [31:0] $end
$var wire 32 I alu3 [31:0] $end
$var wire 32 J alu2 [31:0] $end
$var wire 32 K alu1 [31:0] $end
$var wire 32 L alu0 [31:0] $end
$var wire 1 M Branch_o $end
$scope module ALU $end
$var wire 3 N op [2:0] $end
$var wire 32 O c [31:0] $end
$var wire 32 P b [31:0] $end
$var wire 32 Q a [31:0] $end
$upscope $end
$scope module ALUControl $end
$var wire 2 R aluop [1:0] $end
$var wire 10 S inst [9:0] $end
$var wire 3 T aluop3 [2:0] $end
$upscope $end
$scope module Add0 $end
$var wire 32 U b [31:0] $end
$var wire 32 V c [31:0] $end
$var wire 32 W a [31:0] $end
$upscope $end
$scope module Add1 $end
$var wire 32 X c [31:0] $end
$var wire 32 Y b [31:0] $end
$var wire 32 Z a [31:0] $end
$upscope $end
$scope module Control $end
$var wire 7 [ inst [6:0] $end
$var wire 8 \ out [7:0] $end
$var wire 1 : noop $end
$var wire 7 ] ctrl [6:0] $end
$var wire 1 M Branch_o $end
$upscope $end
$scope module Data_Memory $end
$var wire 1 ^ MemRead_i $end
$var wire 1 _ MemWrite_i $end
$var wire 1 ! clk_i $end
$var wire 32 ` data_o [31:0] $end
$var wire 32 a data_i [31:0] $end
$var wire 32 b addr_i [31:0] $end
$upscope $end
$scope module EXMEM $end
$var wire 32 c alui [31:0] $end
$var wire 32 d aluo [31:0] $end
$var wire 1 ! clk $end
$var wire 4 e ctrli [3:0] $end
$var wire 4 f ctrlo [3:0] $end
$var wire 5 g insti [4:0] $end
$var wire 5 h insto [4:0] $end
$var wire 32 i r2o [31:0] $end
$var wire 1 " rst $end
$var wire 32 j r2i [31:0] $end
$var reg 32 k alu [31:0] $end
$var reg 4 l ctrl [3:0] $end
$var reg 5 m inst [4:0] $end
$var reg 32 n r2 [31:0] $end
$upscope $end
$scope module FU $end
$var wire 5 o exrs1 [4:0] $end
$var wire 5 p exrs2 [4:0] $end
$var wire 5 q memrd [4:0] $end
$var wire 1 r memregwrite $end
$var wire 1 s wbregwrite $end
$var wire 5 t wbrd [4:0] $end
$var wire 2 u fb [1:0] $end
$var wire 2 v fa [1:0] $end
$upscope $end
$scope module Hazard_Detection $end
$var wire 1 + Stall_o $end
$var wire 1 w memread $end
$var wire 1 : noop $end
$var wire 1 4 pcwrite $end
$var wire 5 x rd [4:0] $end
$var wire 5 y rs1 [4:0] $end
$var wire 5 z rs2 [4:0] $end
$upscope $end
$scope module IDEX $end
$var wire 1 ! clk $end
$var wire 7 { ctrli [6:0] $end
$var wire 7 | ctrlo [6:0] $end
$var wire 32 } immo [31:0] $end
$var wire 32 ~ insto [31:0] $end
$var wire 32 !" r1o [31:0] $end
$var wire 32 "" r2o [31:0] $end
$var wire 1 " rst $end
$var wire 32 #" r2i [31:0] $end
$var wire 32 $" r1i [31:0] $end
$var wire 32 %" insti [31:0] $end
$var wire 32 &" immi [31:0] $end
$var reg 7 '" ctrl [6:0] $end
$var reg 32 (" imm [31:0] $end
$var reg 32 )" inst [31:0] $end
$var reg 32 *" r1 [31:0] $end
$var reg 32 +" r2 [31:0] $end
$upscope $end
$scope module IFID $end
$var wire 1 ! clk $end
$var wire 1 ( flush $end
$var wire 32 ," insto [31:0] $end
$var wire 32 -" pco [31:0] $end
$var wire 1 " rst $end
$var wire 1 + stall $end
$var wire 32 ." pci [31:0] $end
$var wire 32 /" insti [31:0] $end
$var reg 32 0" inst [31:0] $end
$var reg 32 1" pc [31:0] $end
$upscope $end
$scope module ImmGen $end
$var wire 32 2" inst [31:0] $end
$var wire 32 3" res [31:0] $end
$var wire 10 4" func [9:0] $end
$upscope $end
$scope module Instruction_Memory $end
$var wire 32 5" instr_o [31:0] $end
$var wire 32 6" addr_i [31:0] $end
$upscope $end
$scope module MEMWB $end
$var wire 32 7" alu1i [31:0] $end
$var wire 32 8" alu1o [31:0] $end
$var wire 32 9" alu2i [31:0] $end
$var wire 32 :" alu2o [31:0] $end
$var wire 1 ! clk $end
$var wire 2 ;" ctrli [1:0] $end
$var wire 2 <" ctrlo [1:0] $end
$var wire 5 =" rdi [4:0] $end
$var wire 1 " rst $end
$var wire 5 >" rdo [4:0] $end
$var reg 32 ?" alu1 [31:0] $end
$var reg 32 @" alu2 [31:0] $end
$var reg 2 A" ctrl [1:0] $end
$var reg 32 B" rd [31:0] $end
$upscope $end
$scope module MUX0 $end
$var wire 32 C" a0 [31:0] $end
$var wire 32 D" a1 [31:0] $end
$var wire 1 ( sel $end
$var wire 32 E" b [31:0] $end
$upscope $end
$scope module MUX1 $end
$var wire 32 F" a0 [31:0] $end
$var wire 32 G" a2 [31:0] $end
$var wire 2 H" sel [1:0] $end
$var wire 32 I" b [31:0] $end
$var wire 32 J" a1 [31:0] $end
$upscope $end
$scope module MUX2 $end
$var wire 32 K" a0 [31:0] $end
$var wire 32 L" a2 [31:0] $end
$var wire 2 M" sel [1:0] $end
$var wire 32 N" b [31:0] $end
$var wire 32 O" a1 [31:0] $end
$upscope $end
$scope module MUX3 $end
$var wire 32 P" a0 [31:0] $end
$var wire 32 Q" a1 [31:0] $end
$var wire 1 R" sel $end
$var wire 32 S" b [31:0] $end
$upscope $end
$scope module MUX4 $end
$var wire 32 T" a0 [31:0] $end
$var wire 32 U" a1 [31:0] $end
$var wire 1 V" sel $end
$var wire 32 W" b [31:0] $end
$upscope $end
$scope module PC $end
$var wire 1 4 PCWrite_i $end
$var wire 1 ! clk_i $end
$var wire 32 X" pc_i [31:0] $end
$var wire 1 " rst_i $end
$var reg 32 Y" pc_o [31:0] $end
$upscope $end
$scope module Registers $end
$var wire 5 Z" RDaddr_i [4:0] $end
$var wire 32 [" RDdata_i [31:0] $end
$var wire 5 \" RS1addr_i [4:0] $end
$var wire 5 ]" RS2addr_i [4:0] $end
$var wire 1 ^" RegWrite_i $end
$var wire 1 ! clk_i $end
$var wire 1 " rst_i $end
$var wire 32 _" RS2data_o [31:0] $end
$var wire 32 `" RS1data_o [31:0] $end
$var integer 32 a" i [31:0] $end
$upscope $end
$upscope $end
$upscope $end
$enddefinitions $end
#0
$dumpvars
bx a"
bx `"
bx _"
x^"
bx ]"
bx \"
bx ["
bx Z"
bx Y"
bx X"
bx W"
xV"
bx U"
bx T"
bx S"
xR"
bx Q"
bx P"
bx O"
bx N"
bx M"
bx L"
bx K"
bx J"
bx I"
bx H"
bx G"
bx F"
bx E"
bx D"
bx C"
bx B"
bx A"
bx @"
bx ?"
bx >"
bx ="
bx <"
bx ;"
bx :"
bx 9"
bx 8"
bx 7"
bx 6"
bx 5"
bx 4"
bx 3"
bx 2"
bx 1"
bx 0"
bx /"
bx ."
bx -"
bx ,"
bx +"
bx *"
bx )"
bx ("
bx '"
bx &"
bx %"
bx $"
bx #"
bx ""
bx !"
bx ~
bx }
bx |
bx {
bx z
bx y
bx x
xw
bx v
bx u
bx t
xs
xr
bx q
bx p
bx o
bx n
bx m
bx l
bx k
bx j
bx i
bx h
bx g
bx f
bx e
bx d
bx c
bx b
bx a
bx `
x_
x^
bx ]
bx \
bx [
bx Z
bx Y
bx X
bx W
bx V
b100 U
bx T
bx S
bx R
bx Q
bx P
bx O
bx N
xM
bx L
bx K
bx J
bx I
bx H
bx G
bx F
bx E
bx D
bx C
bx B
bx A
bx @
bx ?
bx >
bx =
bx <
bx ;
x:
bx 9
bx 8
bx 7
bx 6
bx 5
x4
bx 3
bx 2
bx 1
bx 0
bx /
bx .
bx -
bx ,
x+
bx *
bx )
x(
b0 '
b11 &
b100000 %
b0 $
b0 #
1"
0!
$end
#6
b0 L
b0 O
b0 c
0(
0M
b0 F
b0 ]
b0 {
b100 5
b100 E"
b100 X"
b0 \
14
b11 G
b11 N
b11 T
b0 B
b0 v
b0 H"
b0 A
b0 u
b0 M"
b0 6
b0 X
b0 D"
b0 @
b0 Z
b0 &"
b0 3"
0:
0+
b0 J
b0 `
b0 9"
b0 3
b0 $"
b0 `"
b0 0
b0 #"
b0 _"
b110000010011 >
b110000010011 /"
b110000010011 5"
b0 4"
b0 [
b0 ]"
b0 \"
b0 z
b0 y
b0 g
b0 S
b0 p
b0 o
b0 x
b0 -
b0 P
b0 S"
b0 .
b0 j
b0 N"
b0 P"
b0 1
b0 Q
b0 I"
b0 e
b0 R
0R"
0w
b0 ;"
0_
0^
0r
b0 *
b0 t
b0 >"
b0 Z"
b0 )
b0 J"
b0 O"
b0 W"
b0 ["
0V"
0s
0^"
b100 8
b100 V
b100 C"
b0 9
b0 W
b0 ."
b0 6"
b0 Y"
b0 =
b0 %"
b0 ,"
b0 0"
b0 2"
b0 7
b0 Y
b0 -"
b0 1"
b0 <
b0 ~
b0 )"
b0 ?
b0 }
b0 ("
b0 Q"
b0 /
b0 ""
b0 +"
b0 K"
b0 2
b0 !"
b0 *"
b0 F"
b0 E
b0 |
b0 '"
b0 ;
b0 h
b0 m
b0 q
b0 ="
b0 ,
b0 a
b0 i
b0 n
b0 K
b0 b
b0 d
b0 k
b0 7"
b0 G"
b0 L"
b0 D
b0 f
b0 l
b0 B"
b0 I
b0 :"
b0 @"
b0 U"
b0 H
b0 8"
b0 ?"
b0 T"
b0 C
b0 <"
b0 A"
b100000 a"
0"
#12
1"
#25
b1110001 F
b1110001 ]
b1110001 {
b11100010 \
b10011 4"
b10011 [
b10000000000110100010011 >
b10000000000110100010011 /"
b10000000000110100010011 5"
b1000 5
b1000 E"
b1000 X"
b110000010011 =
b110000010011 %"
b110000010011 ,"
b110000010011 0"
b110000010011 2"
b1000 8
b1000 V
b1000 C"
b100 9
b100 W
b100 ."
b100 6"
b100 Y"
b1 #
1!
#50
0!
#75
b100 @
b100 Z
b100 &"
b100 3"
b10000000000111000010011 >
b10000000000111000010011 /"
b10000000000111000010011 5"
b1100 5
b1100 E"
b1100 X"
b100 ]"
b100 z
b11000 g
b11000 x
b1 e
b11 R
1R"
b1100 8
b1100 V
b1100 C"
b1000 9
b1000 W
b1000 ."
b1000 6"
b1000 Y"
b1000 6
b1000 X
b1000 D"
b100 7
b100 Y
b100 -"
b100 1"
b10000000000110100010011 =
b10000000000110100010011 %"
b10000000000110100010011 ,"
b10000000000110100010011 0"
b10000000000110100010011 2"
b110000010011 <
b110000010011 ~
b110000010011 )"
b1110001 E
b1110001 |
b1110001 '"
b10 #
1!
#100
0!
#125
b100 L
b100 O
b100 c
b1 ;"
1r
b11010 g
b100 p
b11010 x
b100 -
b100 P
b100 S"
b11111111111100000000011110010011 >
b11111111111100000000011110010011 /"
b11111111111100000000011110010011 5"
b10000 5
b10000 E"
b10000 X"
b11000 ;
b11000 h
b11000 m
b11000 q
b11000 ="
b1 D
b1 f
b1 l
b10000000000110100010011 <
b10000000000110100010011 ~
b10000000000110100010011 )"
b100 ?
b100 }
b100 ("
b100 Q"
b1100 6
b1100 X
b1100 D"
b1000 7
b1000 Y
b1000 -"
b1000 1"
b10000000000111000010011 =
b10000000000111000010011 %"
b10000000000111000010011 ,"
b10000000000111000010011 0"
b10000000000111000010011 2"
b10000 8
b10000 V
b10000 C"
b1100 9
b1100 W
b1100 ."
b1100 6"
b1100 Y"
b11 #
1!
#150
0!
#175
b11111111111111111111111111111111 @
b11111111111111111111111111111111 Z
b11111111111111111111111111111111 &"
b11111111111111111111111111111111 3"
b111110 0
b111110 #"
b111110 _"
b11110011010000110010110011 >
b11110011010000110010110011 /"
b11110011010000110010110011 5"
b10100 5
b10100 E"
b10100 X"
b11111 ]"
b11111 z
b11100 g
b11100 x
b11000 *
b11000 t
b11000 >"
b11000 Z"
1s
1^"
b10100 8
b10100 V
b10100 C"
b10000 9
b10000 W
b10000 ."
b10000 6"
b10000 Y"
b1011 6
b1011 X
b1011 D"
b1100 7
b1100 Y
b1100 -"
b1100 1"
b11111111111100000000011110010011 =
b11111111111100000000011110010011 %"
b11111111111100000000011110010011 ,"
b11111111111100000000011110010011 0"
b11111111111100000000011110010011 2"
b10000000000111000010011 <
b10000000000111000010011 ~
b10000000000111000010011 )"
b11010 ;
b11010 h
b11010 m
b11010 q
b11010 ="
b100 K
b100 b
b100 d
b100 k
b100 7"
b100 G"
b100 L"
b11000 B"
b1 C
b1 <"
b1 A"
b100 #
1!
#200
0!
#225
b11111111111111111111111111111111 L
b11111111111111111111111111111111 O
b11111111111111111111111111111111 c
b100001 F
b100001 ]
b100001 {
b10000010 \
b100000111000 @
b100000111000 Z
b100000111000 &"
b100000111000 3"
b111000 0
b111000 #"
b111000 _"
b100 3
b100 $"
b100 `"
b11010 *
b11010 t
b11010 >"
b11010 Z"
b100 )
b100 J"
b100 O"
b100 W"
b100 ["
b1111 g
b1111111000 S
b11111 p
b1111 x
b11111111111111111111111111111111 -
b11111111111111111111111111111111 P
b11111111111111111111111111111111 S"
b111110 .
b111110 j
b111110 N"
b111110 P"
b110011 4"
b110011 [
b11100 ]"
b11010 \"
b11100 z
b11010 y
b11111111111111010000110100010011 >
b11111111111111010000110100010011 /"
b11111111111111010000110100010011 5"
b11000 5
b11000 E"
b11000 X"
b11010 B"
b100 H
b100 8"
b100 ?"
b100 T"
b11100 ;
b11100 h
b11100 m
b11100 q
b11100 ="
b11111111111100000000011110010011 <
b11111111111100000000011110010011 ~
b11111111111100000000011110010011 )"
b11111111111111111111111111111111 ?
b11111111111111111111111111111111 }
b11111111111111111111111111111111 ("
b11111111111111111111111111111111 Q"
b111110 /
b111110 ""
b111110 +"
b111110 K"
b100001001000 6
b100001001000 X
b100001001000 D"
b10000 7
b10000 Y
b10000 -"
b10000 1"
b11110011010000110010110011 =
b11110011010000110010110011 %"
b11110011010000110010110011 ,"
b11110011010000110010110011 0"
b11110011010000110010110011 2"
b11000 8
b11000 V
b11000 C"
b10100 9
b10100 W
b10100 ."
b10100 6"
b10100 Y"
b101 #
1!
#250
0!
#275
b10000 L
b10000 O
b10000 c
b1110001 F
b1110001 ]
b1110001 {
b1 A
b1 u
b1 M"
b11100010 \
b101 G
b101 N
b101 T
b11111111111111111111111111111111 @
b11111111111111111111111111111111 Z
b11111111111111111111111111111111 &"
b11111111111111111111111111111111 3"
b111110 0
b111110 #"
b111110 _"
b11001010110110000011 >
b11001010110110000011 /"
b11001010110110000011 5"
b11100 5
b11100 E"
b11100 X"
b10011 4"
b10011 [
b11111 ]"
b11111 z
b11001 g
b1000 S
b11100 p
b11010 o
b11001 x
b100 -
b100 P
b100 S"
b100 .
b100 j
b100 N"
b100 P"
b100 1
b100 Q
b100 I"
b10 R
0R"
b11100 *
b11100 t
b11100 >"
b11100 Z"
b11100 8
b11100 V
b11100 C"
b11000 9
b11000 W
b11000 ."
b11000 6"
b11000 Y"
b10011 6
b10011 X
b10011 D"
b10100 7
b10100 Y
b10100 -"
b10100 1"
b11111111111111010000110100010011 =
b11111111111111010000110100010011 %"
b11111111111111010000110100010011 ,"
b11111111111111010000110100010011 0"
b11111111111111010000110100010011 2"
b11110011010000110010110011 <
b11110011010000110010110011 ~
b11110011010000110010110011 )"
b100000111000 ?
b100000111000 }
b100000111000 ("
b100000111000 Q"
b111000 /
b111000 ""
b111000 +"
b111000 K"
b100 2
b100 !"
b100 *"
b100 F"
b100001 E
b100001 |
b100001 '"
b1111 ;
b1111 h
b1111 m
b1111 q
b1111 ="
b111110 ,
b111110 a
b111110 i
b111110 n
b11111111111111111111111111111111 K
b11111111111111111111111111111111 b
b11111111111111111111111111111111 d
b11111111111111111111111111111111 k
b11111111111111111111111111111111 7"
b11111111111111111111111111111111 G"
b11111111111111111111111111111111 L"
b11100 B"
b110 #
1!
#300
0!
#325
b11 L
b11 O
b11 c
b1000111 F
b1000111 ]
b1000111 {
b0 A
b0 u
b0 M"
b101011 \
b111110 .
b111110 j
b111110 N"
b111110 P"
b11 G
b11 N
b11 T
b11111111111111111111111111111111 -
b11111111111111111111111111111111 P
b11111111111111111111111111111111 S"
b0 @
b0 Z
b0 &"
b0 3"
b0 0
b0 #"
b0 _"
b11111111111111111111111111100111 3
b11111111111111111111111111100111 $"
b11111111111111111111111111100111 `"
b1111 *
b1111 t
b1111 >"
b1111 Z"
b11111111111111111111111111111111 )
b11111111111111111111111111111111 J"
b11111111111111111111111111111111 O"
b11111111111111111111111111111111 W"
b11111111111111111111111111111111 ["
b11010 g
b1111111000 S
b11111 p
b11010 x
b11 R
1R"
b100000011 4"
b11 [
b0 ]"
b11001 \"
b0 z
b11001 y
b1101111000000110000110011 >
b1101111000000110000110011 /"
b1101111000000110000110011 5"
b100000 5
b100000 E"
b100000 X"
b1111 B"
b11111111111111111111111111111111 H
b11111111111111111111111111111111 8"
b11111111111111111111111111111111 ?"
b11111111111111111111111111111111 T"
b11001 ;
b11001 h
b11001 m
b11001 q
b11001 ="
b100 ,
b100 a
b100 i
b100 n
b10000 K
b10000 b
b10000 d
b10000 k
b10000 7"
b10000 G"
b10000 L"
b11111111111111010000110100010011 <
b11111111111111010000110100010011 ~
b11111111111111010000110100010011 )"
b11111111111111111111111111111111 ?
b11111111111111111111111111111111 }
b11111111111111111111111111111111 ("
b11111111111111111111111111111111 Q"
b111110 /
b111110 ""
b111110 +"
b111110 K"
b1110001 E
b1110001 |
b1110001 '"
b11000 6
b11000 X
b11000 D"
b11000 7
b11000 Y
b11000 -"
b11000 1"
b11001010110110000011 =
b11001010110110000011 %"
b11001010110110000011 ,"
b11001010110110000011 0"
b11001010110110000011 2"
b100000 8
b100000 V
b100000 C"
b11100 9
b11100 W
b11100 ."
b11100 6"
b11100 Y"
b111 #
1!
#350
0!
#375
04
b10000 L
b10000 O
b10000 c
b11000 @
b11000 Z
b11000 &"
b11000 3"
b0 F
b0 ]
b0 {
1:
1+
b0 \
b11 G
b11 N
b11 T
b11111111111111111111111111100101 0
b11111111111111111111111111100101 #"
b11111111111111111111111111100101 _"
b0 3
b0 $"
b0 `"
b1 B
b1 v
b1 H"
b111111010000010001100011 >
b111111010000010001100011 /"
b111111010000010001100011 5"
b100100 5
b100100 E"
b100100 X"
b110011 4"
b110011 [
b11011 ]"
b11000 \"
b11011 z
b11000 y
b11011 g
b10 S
b0 p
b11001 o
b11011 x
b0 -
b0 P
b0 S"
b0 .
b0 j
b0 N"
b0 P"
b10000 1
b10000 Q
b10000 I"
b111 e
b0 R
1w
b11001 *
b11001 t
b11001 >"
b11001 Z"
b10000 )
b10000 J"
b10000 O"
b10000 W"
b10000 ["
b100100 8
b100100 V
b100100 C"
b100000 9
b100000 W
b100000 ."
b100000 6"
b100000 Y"
b110100 6
b110100 X
b110100 D"
b11100 7
b11100 Y
b11100 -"
b11100 1"
b1101111000000110000110011 =
b1101111000000110000110011 %"
b1101111000000110000110011 ,"
b1101111000000110000110011 0"
b1101111000000110000110011 2"
b11001010110110000011 <
b11001010110110000011 ~
b11001010110110000011 )"
b0 ?
b0 }
b0 ("
b0 Q"
b0 /
b0 ""
b0 +"
b0 K"
b11111111111111111111111111100111 2
b11111111111111111111111111100111 !"
b11111111111111111111111111100111 *"
b11111111111111111111111111100111 F"
b1000111 E
b1000111 |
b1000111 '"
b11010 ;
b11010 h
b11010 m
b11010 q
b11010 ="
b111110 ,
b111110 a
b111110 i
b111110 n
b11 K
b11 b
b11 d
b11 k
b11 7"
b11 G"
b11 L"
b11001 B"
b10000 H
b10000 8"
b10000 ?"
b10000 T"
b1000 #
1!
#400
0!
#425
b100001 F
b100001 ]
b100001 {
b10000 L
b10000 O
b10000 c
b10000010 \
b0 B
b0 v
b0 H"
14
b0 1
b0 Q
b0 I"
b10 A
b10 u
b10 M"
0:
0+
b11101 J
b11101 `
b11101 9"
b11010 *
b11010 t
b11010 >"
b11010 Z"
b11 )
b11 J"
b11 O"
b11 W"
b11 ["
b11 ;"
1^
b11000 g
b0 S
b11011 p
b11000 o
b11000 x
b10000 -
b10000 P
b10000 S"
b10000 .
b10000 j
b10000 N"
b10000 P"
b0 e
0R"
0w
b11010 B"
b11 H
b11 8"
b11 ?"
b11 T"
b11011 ;
b11011 h
b11011 m
b11011 q
b11011 ="
b0 ,
b0 a
b0 i
b0 n
b10000 K
b10000 b
b10000 d
b10000 k
b10000 7"
b10000 G"
b10000 L"
b111 D
b111 f
b111 l
b1101111000000110000110011 <
b1101111000000110000110011 ~
b1101111000000110000110011 )"
b11000 ?
b11000 }
b11000 ("
b11000 Q"
b11111111111111111111111111100101 /
b11111111111111111111111111100101 ""
b11111111111111111111111111100101 +"
b11111111111111111111111111100101 K"
b0 2
b0 !"
b0 *"
b0 F"
b0 E
b0 |
b0 '"
b1001 #
b1 '
1!
#450
0!
#475
b11101 L
b11101 O
b11101 c
b1000 @
b1000 Z
b1000 &"
b1000 3"
1M
b10000 F
b10000 ]
b10000 {
b11101 -
b11101 P
b11101 S"
b1010000 \
b0 1
b0 Q
b0 I"
b11101 .
b11101 j
b11101 N"
b11101 P"
b11111111111111111111111111111111 0
b11111111111111111111111111111111 #"
b11111111111111111111111111111111 _"
b11 3
b11 $"
b11 `"
b0 B
b0 v
b0 H"
b1 A
b1 u
b1 M"
b0 J
b0 `
b0 9"
b11111110000000000000011011100011 >
b11111110000000000000011011100011 /"
b11111110000000000000011011100011 5"
b101000 5
b101000 E"
b101000 X"
b1100011 4"
b1100011 [
b1111 ]"
b11010 \"
b1111 z
b11010 y
b1 e
b10 R
b0 ;"
0^
0r
b11011 *
b11011 t
b11011 >"
b11011 Z"
b11101 )
b11101 J"
b11101 O"
b11101 W"
b11101 ["
1V"
b101000 8
b101000 V
b101000 C"
b100100 9
b100100 W
b100100 ."
b100100 6"
b100100 Y"
b101000 6
b101000 X
b101000 D"
b100000 7
b100000 Y
b100000 -"
b100000 1"
b111111010000010001100011 =
b111111010000010001100011 %"
b111111010000010001100011 ,"
b111111010000010001100011 0"
b111111010000010001100011 2"
b100001 E
b100001 |
b100001 '"
b11000 ;
b11000 h
b11000 m
b11000 q
b11000 ="
b10000 ,
b10000 a
b10000 i
b10000 n
b0 D
b0 f
b0 l
b11011 B"
b11101 I
b11101 :"
b11101 @"
b11101 U"
b10000 H
b10000 8"
b10000 ?"
b10000 T"
b11 C
b11 <"
b11 A"
b1010 #
1!
#500
0!
#525
b10 L
b10 O
b10 c
b11111111111111111111111111101100 @
b11111111111111111111111111101100 Z
b11111111111111111111111111101100 &"
b11111111111111111111111111101100 3"
b11111111111111111111111111111111 -
b11111111111111111111111111111111 P
b11111111111111111111111111111111 S"
b0 A
b0 u
b0 M"
b11111111111111111111111111111111 .
b11111111111111111111111111111111 j
b11111111111111111111111111111111 N"
b11111111111111111111111111111111 P"
1(
b0 0
b0 #"
b0 _"
b0 3
b0 $"
b0 `"
b11000 *
b11000 t
b11000 >"
b11000 Z"
b10000 )
b10000 J"
b10000 O"
b10000 W"
b10000 ["
0V"
0s
0^"
b1 ;"
1r
b1000 g
b1111 p
b11010 o
b1000 x
b11 1
b11 Q
b11 I"
b0 e
b1 R
b0 ]"
b0 \"
b0 z
b0 y
b1100000000010111000100011 >
b1100000000010111000100011 /"
b1100000000010111000100011 5"
b10000 5
b10000 E"
b10000 X"
b11000 B"
b0 I
b0 :"
b0 @"
b0 U"
b0 C
b0 <"
b0 A"
b11101 ,
b11101 a
b11101 i
b11101 n
b11101 K
b11101 b
b11101 d
b11101 k
b11101 7"
b11101 G"
b11101 L"
b1 D
b1 f
b1 l
b111111010000010001100011 <
b111111010000010001100011 ~
b111111010000010001100011 )"
b1000 ?
b1000 }
b1000 ("
b1000 Q"
b11111111111111111111111111111111 /
b11111111111111111111111111111111 ""
b11111111111111111111111111111111 +"
b11111111111111111111111111111111 K"
b11 2
b11 !"
b11 *"
b11 F"
b10000 E
b10000 |
b10000 '"
b10000 6
b10000 X
b10000 D"
b100100 7
b100100 Y
b100100 -"
b100100 1"
b11111110000000000000011011100011 =
b11111110000000000000011011100011 %"
b11111110000000000000011011100011 ,"
b11111110000000000000011011100011 0"
b11111110000000000000011011100011 2"
b101100 8
b101100 V
b101100 C"
b101000 9
b101000 W
b101000 ."
b101000 6"
b101000 Y"
b1011 #
1!
#550
0!
#575
b10100 5
b10100 E"
b10100 X"
b100100 6
b100100 X
b100100 D"
b0 @
b0 Z
b0 &"
b0 3"
0(
b100 G
b100 N
b100 T
b0 L
b0 O
b0 c
b0 F
b0 ]
b0 {
0M
b0 \
b0 -
b0 P
b0 S"
b11110011010000110010110011 >
b11110011010000110010110011 /"
b11110011010000110010110011 5"
b0 4"
b0 [
b1101 g
b1111111000 S
b0 p
b0 o
b1101 x
b0 .
b0 j
b0 N"
b0 P"
b0 1
b0 Q
b0 I"
b0 ;"
0r
b11101 )
b11101 J"
b11101 O"
b11101 W"
b11101 ["
1s
1^"
b10100 8
b10100 V
b10100 C"
b10000 9
b10000 W
b10000 ."
b10000 6"
b10000 Y"
b0 =
b0 %"
b0 ,"
b0 0"
b0 2"
b11111110000000000000011011100011 <
b11111110000000000000011011100011 ~
b11111110000000000000011011100011 )"
b11111111111111111111111111101100 ?
b11111111111111111111111111101100 }
b11111111111111111111111111101100 ("
b11111111111111111111111111101100 Q"
b0 /
b0 ""
b0 +"
b0 K"
b0 2
b0 !"
b0 *"
b0 F"
b1000 ;
b1000 h
b1000 m
b1000 q
b1000 ="
b11111111111111111111111111111111 ,
b11111111111111111111111111111111 a
b11111111111111111111111111111111 i
b11111111111111111111111111111111 n
b10 K
b10 b
b10 d
b10 k
b10 7"
b10 G"
b10 L"
b0 D
b0 f
b0 l
b11101 H
b11101 8"
b11101 ?"
b11101 T"
b1 C
b1 <"
b1 A"
b1100 #
b1 $
1!
#600
0!
#625
b11 G
b11 N
b11 T
b100000111000 @
b100000111000 Z
b100000111000 &"
b100000111000 3"
b100001 F
b100001 ]
b100001 {
b10000010 \
b100 0
b100 #"
b100 _"
b11 3
b11 $"
b11 `"
b1000 *
b1000 t
b1000 >"
b1000 Z"
b10 )
b10 J"
b10 O"
b10 W"
b10 ["
0s
0^"
b0 g
b0 S
b0 x
b0 R
b110011 4"
b110011 [
b11100 ]"
b11010 \"
b11100 z
b11010 y
b11111111111111010000110100010011 >
b11111111111111010000110100010011 /"
b11111111111111010000110100010011 5"
b11000 5
b11000 E"
b11000 X"
b1000 B"
b10 H
b10 8"
b10 ?"
b10 T"
b0 C
b0 <"
b0 A"
b1101 ;
b1101 h
b1101 m
b1101 q
b1101 ="
b0 ,
b0 a
b0 i
b0 n
b0 K
b0 b
b0 d
b0 k
b0 7"
b0 G"
b0 L"
b0 <
b0 ~
b0 )"
b0 ?
b0 }
b0 ("
b0 Q"
b0 E
b0 |
b0 '"
b100001001000 6
b100001001000 X
b100001001000 D"
b10000 7
b10000 Y
b10000 -"
b10000 1"
b11110011010000110010110011 =
b11110011010000110010110011 %"
b11110011010000110010110011 ,"
b11110011010000110010110011 0"
b11110011010000110010110011 2"
b11000 8
b11000 V
b11000 C"
b10100 9
b10100 W
b10100 ."
b10100 6"
b10100 Y"
b1101 #
1!
#650
0!
